test_run_dir/should_do_a_random_srl/Core.vcd
$date
2024-06-22T09:22+0000
$end
$version
0.2
$end
$comment

$end
$timescale 1ns  $end
$scope module Core $end
 $var wire 32 # io_rvfi_rvfi_mem_rdata $end
 $var wire 1 & register_file $end
 $var wire 1 ) data_gnt $end
 $var wire 5 * io_rvfi_rvfi_rs2_addr $end
 $var wire 64 + order $end
 $var wire 32 , next_instruction $end
 $var wire 1 - io_data_data_req $end
 $var wire 32 2 io_data_data_addr $end
 $var wire 32 3 io_rvfi_rvfi_rs1_rdata $end
 $var wire 1 4 io_instr_instr_req $end
 $var wire 32 7 io_instr_instr_addr $end
 $var wire 32 ; io_instr_instr_rdata $end
 $var wire 4 < mem_wmask $end
 $var wire 2 = io_rvfi_rvfi_mode $end
 $var wire 5 A io_rvfi_rvfi_rd_addr $end
 $var wire 4 B io_rvfi_rvfi_mem_wmask $end
 $var wire 32 R mem_addr $end
 $var wire 1 U had_mem_req $end
 $var wire 2 _ stall $end
 $var wire 4 e io_data_data_be $end
 $var wire 64 n io_rvfi_rvfi_order $end
 $var wire 1 t executionUnits_0 $end
 $var wire 1 u io_rvfi_rvfi_intr $end
 $var wire 32 v io_rvfi_rvfi_insn $end
 $var wire 1 w io_data_data_gnt $end
 $var wire 32 { io_rvfi_rvfi_pc_wdata $end
 $var wire 32 "" mem_rdata $end
 $var wire 5 "$ io_rvfi_rvfi_rs1_addr $end
 $var wire 32 "( io_rvfi_rvfi_pc_rdata $end
 $var wire 4 "/ mem_rmask $end
 $var wire 1 "0 io_data_data_we $end
 $var wire 1 "1 io_reset_rst_n $end
 $var wire 1 "4 io_rvfi_rvfi_trap $end
 $var wire 1 "5 clock $end
 $var wire 1 "9 io_instr_instr_gnt $end
 $var wire 32 "; mem_wdata $end
 $var wire 32 "< io_reset_boot_addr $end
 $var wire 32 "B io_data_data_wdata $end
 $var wire 1 "H reset $end
 $var wire 2 "I io_rvfi_rvfi_ixl $end
 $var wire 1 "Q io_rvfi_rvfi_halt $end
 $var wire 32 "T io_rvfi_rvfi_rs2_rdata $end
 $var wire 32 "V io_data_data_rdata $end
 $var wire 1 "Z io_rvfi_rvfi_valid $end
 $var wire 32 "] instruction $end
 $var wire 1 "_ pc $end
 $var wire 32 "c io_rvfi_rvfi_rd_wdata $end
 $var wire 32 "j io_rvfi_rvfi_mem_wdata $end
 $var wire 4 "k io_rvfi_rvfi_mem_rmask $end
 $var wire 32 "l io_rvfi_rvfi_mem_addr $end
  $scope module executionUnits_0.alu $end
  $upscope $end
  $scope module pc $end
   $var wire 1 o io_reset_rst_n $end
   $var wire 32 p pc $end
   $var wire 32 s io_reset_boot_addr $end
   $var wire 1 "2 reset $end
   $var wire 1 "6 io_pc_we $end
   $var wire 32 "7 io_pc_wdata $end
   $var wire 1 "n clock $end
   $var wire 32 "o io_pc $end
  $upscope $end
  $scope module executionUnits_0.branch_unit $end
  $upscope $end
  $scope module register_file $end
   $var wire 1 . clock $end
   $var wire 32 5 io_reg_write_data $end
   $var wire 5 6 io_reg_rd $end
   $var wire 1 : reset $end
   $var wire 1 > io_reg_write_en $end
   $var wire 1 G io_reset_rst_n $end
   $var wire 32 S registers_30 $end
   $var wire 32 T registers_31 $end
   $var wire 32 W registers_29 $end
   $var wire 32 X registers_27 $end
   $var wire 32 Y registers_28 $end
   $var wire 32 Z registers_25 $end
   $var wire 32 [ registers_26 $end
   $var wire 32 \ registers_23 $end
   $var wire 32 ] registers_24 $end
   $var wire 32 ^ registers_21 $end
   $var wire 32 ` registers_22 $end
   $var wire 32 a registers_20 $end
   $var wire 32 c registers_18 $end
   $var wire 32 d registers_19 $end
   $var wire 32 f registers_16 $end
   $var wire 32 g registers_17 $end
   $var wire 32 h registers_14 $end
   $var wire 32 i registers_15 $end
   $var wire 32 j registers_12 $end
   $var wire 32 k registers_13 $end
   $var wire 32 l registers_10 $end
   $var wire 32 m registers_11 $end
   $var wire 32 "+ io_reg_read_data1 $end
   $var wire 32 ", io_reg_read_data2 $end
   $var wire 32 "= registers_9 $end
   $var wire 32 "> registers_7 $end
   $var wire 32 "? registers_8 $end
   $var wire 32 "@ registers_5 $end
   $var wire 32 "A registers_6 $end
   $var wire 32 "C registers_3 $end
   $var wire 32 "D registers_4 $end
   $var wire 32 "E registers_1 $end
   $var wire 32 "F registers_2 $end
   $var wire 32 "G registers_0 $end
   $var wire 5 "` io_reg_rs1 $end
   $var wire 5 "a io_reg_rs2 $end
  $upscope $end
  $scope module executionUnits_0.control_unit $end
  $upscope $end
  $scope module executionUnits_0.decoder $end
  $upscope $end
  $scope module executionUnits_0 $end
   $var wire 4 / io_data_data_be $end
   $var wire 1 8 io_pc_pc_we $end
   $var wire 1 9 io_data_data_req $end
   $var wire 1 @ decoder $end
   $var wire 1 C clock $end
   $var wire 32 D io_data_data_wdata $end
   $var wire 32 E io_pc_pc_wdata $end
   $var wire 32 V io_instr $end
   $var wire 5 x io_reg_reg_rs2 $end
   $var wire 5 y io_reg_reg_rs1 $end
   $var wire 32 z io_data_data_addr $end
   $var wire 1 | io_data_data_we $end
   $var wire 2 ~ io_stall $end
   $var wire 32 "# io_reg_reg_write_data $end
   $var wire 32 "% io_reset_boot_addr $end
   $var wire 1 "& branch_unit $end
   $var wire 32 "' io_reg_reg_read_data2 $end
   $var wire 32 ") io_reg_reg_read_data1 $end
   $var wire 1 ". io_reg_reg_write_en $end
   $var wire 1 "3 control_unit $end
   $var wire 1 "L io_valid $end
   $var wire 5 "M io_reg_reg_rd $end
   $var wire 1 "P alu $end
   $var wire 32 "U io_pc_pc $end
   $var wire 1 "Y io_data_data_gnt $end
   $var wire 1 "^ reset $end
   $var wire 1 "i io_reset_rst_n $end
    $scope module alu $end
     $var wire 32 ! io_alu_op1 $end
     $var wire 32 " io_alu_op2 $end
     $var wire 32 b io_alu_result $end
     $var wire 4 "8 io_alu_alu_op $end
    $upscope $end
    $scope module control_unit $end
     $var wire 3 $ io_ctrl_next_pc_select $end
     $var wire 1 % io_ctrl_data_req $end
     $var wire 1 0 clock $end
     $var wire 1 1 reset $end
     $var wire 2 ? io_ctrl_stall $end
     $var wire 1 O io_ctrl_alu_op_2_sel $end
     $var wire 1 q io_reset_rst_n $end
     $var wire 4 r io_ctrl_data_be $end
     $var wire 29 } io_ctrl_instr_type $end
     $var wire 1 "* io_ctrl_data_we $end
     $var wire 2 ": stalled $end
     $var wire 1 "J io_ctrl_data_gnt $end
     $var wire 2 "K was_stalled $end
     $var wire 3 "X io_ctrl_reg_write_sel $end
     $var wire 1 "[ io_ctrl_alu_op_1_sel $end
     $var wire 4 "f io_ctrl_alu_control $end
     $var wire 1 "g io_ctrl_reg_we $end
    $upscope $end
    $scope module branch_unit $end
     $var wire 32 ' io_branch_alu_out $end
     $var wire 29 "W io_branch_instr_type $end
     $var wire 1 "m io_branch_branch_taken $end
    $upscope $end
    $scope module decoder $end
     $var wire 32 ( io_decoder_imm $end
     $var wire 1 F io_decoder_valid $end
     $var wire 29 H io_decoder_instr_type_j_4 $end
     $var wire 29 I io_decoder_instr_type_j_3 $end
     $var wire 5 J io_decoder_rd $end
     $var wire 29 K io_decoder_instr_type_j_6 $end
     $var wire 29 L io_decoder_instr_type_j_5 $end
     $var wire 29 M io_decoder_instr_type_j_8 $end
     $var wire 29 N io_decoder_instr_type_j_7 $end
     $var wire 29 P io_decoder_instr_type_j_2 $end
     $var wire 29 Q io_decoder_instr_type_j_1 $end
     $var wire 29 "! io_decoder_instr_type $end
     $var wire 32 "- io_decoder_instr $end
     $var wire 3 "N funct3 $end
     $var wire 7 "O funct7 $end
     $var wire 5 "R RS1 $end
     $var wire 5 "S RS2 $end
     $var wire 7 "\ opcode $end
     $var wire 5 "b RD $end
     $var wire 5 "d io_decoder_rs1 $end
     $var wire 5 "e io_decoder_rs2 $end
     $var wire 29 "h io_decoder_instr_type_j $end
    $upscope $end
  $upscope $end
$upscope $end
$enddefinitions $end
$dumpvars
00
01
b00000000000000000000000000000000 "-
b00000000000000000000000000000000 ",
b0000 "f
b00000000000000000000000000000000 ,
04
b00 =
b00000000000000000000000000000000 '
b0000 "k
b00000000000000000000000000000000 (
b00000000000000000000000000000000 "'
08
b00000000000000000000000000000000 #
09
b00000000000000000000000000000000 "
b00000000000000000000000000000000 "%
0:
b00000000000000000000000000000000 "+
b00000000000000000000000000000000 ")
0>
b00000000000000000000000000000000 !
b00000000000000000000000000000000 "(
b00000000000000000000000000000000 "?
0@
b00000000000000000000000000000000 ;
b00000000000000000000000000000000 ">
b00000000000000000000000000000000 "=
b0000000 "O
b00000000000000000000000000000 }
b00000000000000000000000000000000 "<
0C
b00000000000000000000000000000000 "C
b00000000000000000000000000000000 7
b00000000000000000000000000000000 "B
b00000000000000000000000000000000 "A
0F
b00000000000000000000000000000000 "@
0G
b00000000000000000000000000000000 "7
b00000000000000000000000000000000 3
b00000000000000000000000000000000 2
b00000000000000000000000000000000 5
b00000000000000000000000000000000 ";
0O
0U
b00000000000000000000000000000000 "G
b00000000000000000000000000000000 "F
b00000000000000000000000000000000 "E
b00000000000000000000000000000000 "D
b00000000000000000000000000000000 "]
b00000000000000000000000000000000 "c
b0000 /
b0000 <
b00000000000000000000000000000000 "V
b00000000000000000000000000000000 "U
b00000000000000000000000000000000 "T
0o
b00000000000000000000000000000 K
0q
b00000000000000000000000000000 L
b00000000000000000000000000000 M
b00000000000000000000000000000 N
0t
0u
b00000000000000000000000000000 P
b00000000000000000000000000000 Q
0w
b0000000000000000000000000000000000000000000000000000000000000000 n
0|
b00000000000000000000000000000 H
b00000000000000000000000000000 I
b0000000 "\
b00000000000000000000000000000000 "#
0"&
b00000000000000000000000000000000 ""
0"*
0".
0"0
0"1
0"2
0"3
0"4
0"5
0"6
b00000 "M
0"9
b000 "X
b00 "I
b00 "K
0"H
b0000000000000000000000000000000000000000000000000000000000000000 +
0"J
b00000 *
0"L
0"P
0"Q
b00 ":
b00000 6
0"Y
0"Z
0"[
0"^
0"_
b00000 "$
b00000 A
b00000000000000000000000000000 "!
0"g
0"i
b00000 J
0"m
b00 ~
0"n
b00000000000000000000000000000000 "o
b00000000000000000000000000000000 k
b00000000000000000000000000000000 j
b0000 B
b00000000000000000000000000000000 m
b00000000000000000000000000000000 "l
b00000000000000000000000000000000 l
b00000000000000000000000000000000 g
b00000000000000000000000000000000 f
b00000000000000000000000000000000 i
b00000000000000000000000000000000 h
b00000000000000000000000000000000 c
b00000000000000000000000000000000 b
b0000 "/
b00000000000000000000000000000000 d
b00000000000000000000000000000000 "j
b00000000000000000000000000000000 ^
b00000000000000000000000000000000 a
b00000000000000000000000000000000 `
b00000000000000000000000000000000 {
b00000000000000000000000000000000 z
b0000 "8
b00000000000000000000000000000000 v
b00000000000000000000000000000000 s
b00 _
b00000000000000000000000000000000 p
b0000 e
b00000000000000000000000000000 "W
b00000 y
b000 $
b00000 x
b00000 "a
b00000 "`
b00000000000000000000000000000000 E
b00000000000000000000000000000000 D
b00000 "b
b00000 "e
b00000 "d
b00000000000000000000000000000000 [
b00000000000000000000000000000000 Z
b0000 r
b00000000000000000000000000000000 ]
b00000000000000000000000000000000 \
b00000000000000000000000000000000 W
0%
b00000000000000000000000000000000 V
0&
b00000000000000000000000000000000 Y
b00000000000000000000000000000000 X
b000 "N
b00000000000000000000000000000000 S
0)
b00000000000000000000000000000000 R
b00 ?
b00000000000000000000000000000 "h
b00000 "S
b00000000000000000000000000000000 T
b00000 "R
0-
0.
$end
#0
b00000000000000000000000000000100 E
1"g
b11111110000000000000000000000 "h
b11111110000000000000000000000 H
b11111110000000000000000000000 I
b11111110000000000000000000000 K
b11111110000000000000000000000 L
1".
b11111110000000000000000000000 M
b11111110000000000000000000000 N
1O
b11111110000000000000000000000 P
1"2
b11111110000000000000000000000 Q
b01 _
1"H
b1111111111111111111111111111111111111111111111111111111111111111 n
11
14
b00100110000000000000000000000 "W
18
1:
b1111111 "\
1"^
b00100110000000000000000000000 }
b00100110000000000000000000000 "!
#1
b11111 "b
1C
b11111111111111111000000000000 "h
b11111111110000000000000000000 H
b11111111111111111111111111111111 "-
b11111111110000000000000000000 L
b111 "N
1"n
b11111111110000000000000000000 M
b1111111 "O
1.
b11111111110000000000000000000 N
10
b11111 "R
b11111111110000000000000000000 Q
b11111 "S
1"5
b11111111111111111111111111111111 V
b11111111111111111111111111111111 v
b11111111111111111111111111111111 "]
#6
00
0"2
01
0C
0"5
0"H
0:
0"^
0"n
0.
#11
10
1C
1"5
1"n
1.
#16
00
1q
0C
0"5
1G
1"i
b11111111111111111111111111111111 ,
0"n
0.
1o
1"1
#21
10
1C
1"5
1"n
1.
#26
00
0C
0"5
04
1"9
1"Z
b00001100010100000000001010010011 ;
b00001100010100000000001010010011 ,
0"n
0.
b00 _
#31
b00101 "b
b00101 A
b00000000000000000000000011000101 "#
b00000000000000000000000011000101 "c
1C
1F
b00100110001111111000000000000 "h
b00100110000000000000000000000 H
b00100110000000000000000000000 I
b00101 J
b00100110000000000000000000000 K
b00001100010100000000001010010011 "-
b00100110000000000000000000000 L
1"n
b00100110000000000000000000000 M
b00100110000000000000000000000 N
b00100110000000000000000000000 P
b00100110000000000000000000000 Q
1"5
1"6
b00000000000000000000000000000100 "7
b00001100010100000000001010010011 V
b00000000000000000000000011000101 "
b00000000000000000000000011000101 b
b00000000000000000000000011000101 '
b00000000000000000000000011000101 (
1"L
b0000000000000000000000000000000000000000000000000000000000000001 +
b00101 "M
b000 "N
1.
b0000000000000000000000000000000000000000000000000000000000000000 n
10
b00000 "R
b00101 "S
b00000000000000000000000011000101 2
14
b00000000000000000000000011000101 5
b00101 6
b00001100010100000000001010010011 v
b00000000000000000000000000000100 7
b00000000000000000000000011000101 z
b0010011 "\
b00000000000000000000000000000100 {
b00001100010100000000001010010011 "]
1>
#36
00
0C
0"5
1"9
b00000000011100000000010100010011 ;
b00000000011100000000010100010011 ,
0"n
0.
#41
b01010 "b
b01010 A
b00000000000000000000000000000111 "#
b00000000000000000000000000000111 "c
1C
b00000000000000000000000000001000 E
b00000000000000000000000000000100 "(
b00100110000000000000000000000 "h
b01010 J
b00000000011100000000010100010011 "-
1"n
b00000000000000000000000000000100 "o
1"5
b00000000000000000000000000001000 "7
b00000000011100000000010100010011 V
b00000000000000000000000011000101 "@
b00000000000000000000000000000111 "
b00000000000000000000000000000111 b
b00000000000000000000000000000111 '
b00000000000000000000000000000111 (
b0000000000000000000000000000000000000000000000000000000000000010 +
b01010 "M
b0000000 "O
1.
b0000000000000000000000000000000000000000000000000000000000000001 n
10
b00000000000000000000000000000100 p
b00111 "S
b00000000000000000000000000000111 2
b00000000000000000000000000000100 "U
b00000000000000000000000000000111 5
b01010 6
b00000000011100000000010100010011 v
b00000000000000000000000000001000 7
b00000000000000000000000000000111 z
b00000000000000000000000000001000 {
b00000000011100000000010100010011 "]
#46
00
0C
0"5
1"9
b00000010010100000000011100010011 ;
b00000010010100000000011100010011 ,
0"n
0.
#51
b01110 "b
b01110 A
b00000000000000000000000000100101 "#
b00000000000000000000000000100101 "c
1C
b00000000000000000000000000001100 E
b00000000000000000000000000001000 "(
b00100110000000001000000000000 "h
b01110 J
b00000010010100000000011100010011 "-
1"n
b00000000000000000000000000001000 "o
1"5
b00000000000000000000000000001100 "7
b00000010010100000000011100010011 V
b00000000000000000000000000100101 "
b00000000000000000000000000100101 b
b00000000000000000000000000100101 '
b00000000000000000000000000100101 (
b0000000000000000000000000000000000000000000000000000000000000011 +
b01110 "M
b00000000000000000000000000000111 l
b0000001 "O
1.
b0000000000000000000000000000000000000000000000000000000000000010 n
10
b00000000000000000000000000001000 p
b00101 "S
b00000000000000000000000000100101 2
b00000000000000000000000000001000 "U
b00000000000000000000000000100101 5
b01110 6
b00000010010100000000011100010011 v
b00000000000000000000000000001100 7
b00000000000000000000000000100101 z
b00000000000000000000000000001100 {
b00000010010100000000011100010011 "]
#56
00
0C
0"5
1"9
b00001000001000000000000010010011 ;
b00001000001000000000000010010011 ,
0"n
0.
#61
b00001 "b
b00001 A
b00000000000000000000000010000010 "#
b00000000000000000000000010000010 "c
1C
b00000000000000000000000000010000 E
b00000000000000000000000000001100 "(
b00100110001111111000000000000 "h
b00001 J
b00001000001000000000000010010011 "-
1"n
b00000000000000000000000000001100 "o
1"5
b00000000000000000000000000010000 "7
b00001000001000000000000010010011 V
b00000000000000000000000010000010 "
b00000000000000000000000010000010 b
b00000000000000000000000010000010 '
b00000000000000000000000010000010 (
b00000000000000000000000000100101 h
b0000000000000000000000000000000000000000000000000000000000000100 +
b00001 "M
b1111111 "O
1.
b0000000000000000000000000000000000000000000000000000000000000011 n
10
b00000000000000000000000000001100 p
b00010 "S
b00000000000000000000000010000010 2
b00000000000000000000000000001100 "U
b00000000000000000000000010000010 5
b00001 6
b00001000001000000000000010010011 v
b00000000000000000000000000010000 7
b00000000000000000000000010000010 z
b00000000000000000000000000010000 {
b00001000001000000000000010010011 "]
#66
00
0C
0"5
1"9
b00001100001000000000001100010011 ;
b00001100001000000000001100010011 ,
0"n
0.
#71
b00110 "b
b00110 A
b00000000000000000000000011000010 "#
b00000000000000000000000011000010 "c
1C
b00000000000000000000000000010100 E
b00000000000000000000000000010000 "(
b00110 J
b00001100001000000000001100010011 "-
1"n
b00000000000000000000000000010000 "o
1"5
b00000000000000000000000000010100 "7
b00001100001000000000001100010011 V
b00000000000000000000000011000010 "
b00000000000000000000000011000010 b
b00000000000000000000000010000010 "E
b00000000000000000000000011000010 '
b00000000000000000000000011000010 (
b0000000000000000000000000000000000000000000000000000000000000101 +
b00110 "M
1.
b0000000000000000000000000000000000000000000000000000000000000100 n
10
b00000000000000000000000000010000 p
b00000000000000000000000011000010 2
b00000000000000000000000000010000 "U
b00000000000000000000000011000010 5
b00110 6
b00001100001000000000001100010011 v
b00000000000000000000000000010100 7
b00000000000000000000000011000010 z
b00000000000000000000000000010100 {
b00001100001000000000001100010011 "]
#76
00
0C
0"5
1"9
b00001000001000000000010010010011 ;
b00001000001000000000010010010011 ,
0"n
0.
#81
b01001 "b
b01001 A
b00000000000000000000000010000010 "#
b00000000000000000000000010000010 "c
1C
b00000000000000000000000000011000 E
b00000000000000000000000000010100 "(
b01001 J
b00001000001000000000010010010011 "-
1"n
b00000000000000000000000000010100 "o
1"5
b00000000000000000000000000011000 "7
b00001000001000000000010010010011 V
b00000000000000000000000011000010 "A
b00000000000000000000000010000010 "
b00000000000000000000000010000010 b
b00000000000000000000000010000010 '
b00000000000000000000000010000010 (
b0000000000000000000000000000000000000000000000000000000000000110 +
b01001 "M
1.
b0000000000000000000000000000000000000000000000000000000000000101 n
10
b00000000000000000000000000010100 p
b00000000000000000000000010000010 2
b00000000000000000000000000010100 "U
b00000000000000000000000010000010 5
b01001 6
b00001000001000000000010010010011 v
b00000000000000000000000000011000 7
b00000000000000000000000010000010 z
b00000000000000000000000000011000 {
b00001000001000000000010010010011 "]
#86
00
0C
0"5
1"9
b00001001010100000000011010010011 ;
b00001001010100000000011010010011 ,
0"n
0.
#91
b01101 "b
b01101 A
b00000000000000000000000010010101 "#
b00000000000000000000000010010101 "c
1C
b00000000000000000000000000011100 E
b00000000000000000000000000011000 "(
b01101 J
b00001001010100000000011010010011 "-
1"n
b00000000000000000000000000011000 "o
1"5
b00000000000000000000000000011100 "7
b00001001010100000000011010010011 V
b00000000000000000000000010000010 "=
b00000000000000000000000010010101 "
b00000000000000000000000010010101 b
b00000000000000000000000010010101 '
b00000000000000000000000010010101 (
b0000000000000000000000000000000000000000000000000000000000000111 +
b01101 "M
1.
b0000000000000000000000000000000000000000000000000000000000000110 n
10
b00000000000000000000000000011000 p
b10101 "S
b00000000000000000000000010010101 2
b00000000000000000000000000011000 "U
b00000000000000000000000010010101 5
b01101 6
b00001001010100000000011010010011 v
b00000000000000000000000000011100 7
b00000000000000000000000010010101 z
b00000000000000000000000000011100 {
b00001001010100000000011010010011 "]
#96
00
0C
0"5
1"9
b00001001110100000000000100010011 ;
b00001001110100000000000100010011 ,
0"n
0.
#101
b00010 "b
b00010 A
b00000000000000000000000010011101 "#
b00000000000000000000000010011101 "c
1C
b00000000000000000000000000100000 E
b00000000000000000000000000011100 "(
b00010 J
b00001001110100000000000100010011 "-
1"n
b00000000000000000000000000011100 "o
1"5
b00000000000000000000000000100000 "7
b00001001110100000000000100010011 V
b00000000000000000000000010011101 "
b00000000000000000000000010011101 b
b00000000000000000000000010011101 '
b00000000000000000000000010011101 (
b0000000000000000000000000000000000000000000000000000000000001000 +
b00000000000000000000000010010101 k
b00010 "M
1.
b0000000000000000000000000000000000000000000000000000000000000111 n
10
b00000000000000000000000000011100 p
b11101 "S
b00000000000000000000000010011101 2
b00000000000000000000000000011100 "U
b00000000000000000000000010011101 5
b00010 6
b00001001110100000000000100010011 v
b00000000000000000000000000100000 7
b00000000000000000000000010011101 z
b00000000000000000000000000100000 {
b00001001110100000000000100010011 "]
#106
00
0C
0"5
1"9
b00000011100100000000100010010011 ;
b00000011100100000000100010010011 ,
0"n
0.
#111
b10001 "b
b10001 A
b00000000000000000000000000111001 "#
b00000000000000000000000000111001 "c
1C
b00000000000000000000000000100100 E
b00000000000000000000000000100000 "(
b00100110000000001000000000000 "h
b10001 J
b00000011100100000000100010010011 "-
1"n
b00000000000000000000000000100000 "o
1"5
b00000000000000000000000000100100 "7
b00000011100100000000100010010011 V
b00000000000000000000000000111001 "
b00000000000000000000000000111001 b
b00000000000000000000000010011101 "F
b00000000000000000000000000111001 '
b00000000000000000000000000111001 (
b0000000000000000000000000000000000000000000000000000000000001001 +
b10001 "M
b0000001 "O
1.
b0000000000000000000000000000000000000000000000000000000000001000 n
10
b00000000000000000000000000100000 p
b11001 "S
b00000000000000000000000000111001 2
b00000000000000000000000000100000 "U
b00000000000000000000000000111001 5
b10001 6
b00000011100100000000100010010011 v
b00000000000000000000000000100100 7
b00000000000000000000000000111001 z
b00000000000000000000000000100100 {
b00000011100100000000100010010011 "]
#116
00
0C
0"5
1"9
b00001101001000000000011000010011 ;
b00001101001000000000011000010011 ,
0"n
0.
#121
b01100 "b
b01100 A
b00000000000000000000000011010010 "#
b00000000000000000000000011010010 "c
1C
b00000000000000000000000000101000 E
b00000000000000000000000000100100 "(
b00100110001111111000000000000 "h
b01100 J
b00001101001000000000011000010011 "-
1"n
b00000000000000000000000000100100 "o
1"5
b00000000000000000000000000101000 "7
b00001101001000000000011000010011 V
b00000000000000000000000011010010 "
b00000000000000000000000011010010 b
b00000000000000000000000011010010 '
b00000000000000000000000000111001 g
b00000000000000000000000011010010 (
b0000000000000000000000000000000000000000000000000000000000001010 +
b01100 "M
b1111111 "O
1.
b0000000000000000000000000000000000000000000000000000000000001001 n
10
b00000000000000000000000000100100 p
b10010 "S
b00000000000000000000000011010010 2
b00000000000000000000000000100100 "U
b00000000000000000000000011010010 5
b01100 6
b00001101001000000000011000010011 v
b00000000000000000000000000101000 7
b00000000000000000000000011010010 z
b00000000000000000000000000101000 {
b00001101001000000000011000010011 "]
#126
00
0C
0"5
1"9
b00000001100000000000001110010011 ;
b00000001100000000000001110010011 ,
0"n
0.
#131
b00111 "b
b00111 A
b00000000000000000000000000011000 "#
b00000000000000000000000000011000 "c
1C
b00000000000000000000000000101100 E
b00000000000000000000000000101000 "(
b00100110000000000000000000000 "h
b00111 J
b00000001100000000000001110010011 "-
1"n
b00000000000000000000000000101000 "o
1"5
b00000000000000000000000000101100 "7
b00000001100000000000001110010011 V
b00000000000000000000000000011000 "
b00000000000000000000000000011000 b
b00000000000000000000000000011000 '
b00000000000000000000000000011000 (
b00000000000000000000000011010010 j
b0000000000000000000000000000000000000000000000000000000000001011 +
b00111 "M
b0000000 "O
1.
b0000000000000000000000000000000000000000000000000000000000001010 n
10
b00000000000000000000000000101000 p
b11000 "S
b00000000000000000000000000011000 2
b00000000000000000000000000101000 "U
b00000000000000000000000000011000 5
b00111 6
b00000001100000000000001110010011 v
b00000000000000000000000000101100 7
b00000000000000000000000000011000 z
b00000000000000000000000000101100 {
b00000001100000000000001110010011 "]
#136
00
0C
0"5
1"9
b00001100100100000000000110010011 ;
b00001100100100000000000110010011 ,
0"n
0.
#141
b00011 "b
b00011 A
b00000000000000000000000011001001 "#
b00000000000000000000000011001001 "c
1C
b00000000000000000000000000110000 E
b00000000000000000000000000101100 "(
b00100110001111111000000000000 "h
b00011 J
b00001100100100000000000110010011 "-
1"n
b00000000000000000000000000101100 "o
1"5
b00000000000000000000000000110000 "7
b00001100100100000000000110010011 V
b00000000000000000000000000011000 ">
b00000000000000000000000011001001 "
b00000000000000000000000011001001 b
b00000000000000000000000011001001 '
b00000000000000000000000011001001 (
b0000000000000000000000000000000000000000000000000000000000001100 +
b00011 "M
b1111111 "O
1.
b0000000000000000000000000000000000000000000000000000000000001011 n
10
b00000000000000000000000000101100 p
b01001 "S
b00000000000000000000000011001001 2
b00000000000000000000000000101100 "U
b00000000000000000000000011001001 5
b00011 6
b00001100100100000000000110010011 v
b00000000000000000000000000110000 7
b00000000000000000000000011001001 z
b00000000000000000000000000110000 {
b00001100100100000000000110010011 "]
#146
00
0C
0"5
1"9
b00001100010000000000100100010011 ;
b00001100010000000000100100010011 ,
0"n
0.
#151
b10010 "b
b10010 A
b00000000000000000000000011000100 "#
b00000000000000000000000011000100 "c
1C
b00000000000000000000000000110100 E
b00000000000000000000000000110000 "(
b10010 J
b00001100010000000000100100010011 "-
1"n
b00000000000000000000000000110000 "o
1"5
b00000000000000000000000000110100 "7
b00001100010000000000100100010011 V
b00000000000000000000000011001001 "C
b00000000000000000000000011000100 "
b00000000000000000000000011000100 b
b00000000000000000000000011000100 '
b00000000000000000000000011000100 (
b0000000000000000000000000000000000000000000000000000000000001101 +
b10010 "M
1.
b0000000000000000000000000000000000000000000000000000000000001100 n
10
b00000000000000000000000000110000 p
b00100 "S
b00000000000000000000000011000100 2
b00000000000000000000000000110000 "U
b00000000000000000000000011000100 5
b10010 6
b00001100010000000000100100010011 v
b00000000000000000000000000110100 7
b00000000000000000000000011000100 z
b00000000000000000000000000110100 {
b00001100010000000000100100010011 "]
#156
00
0C
0"5
1"9
b00001000100000000000010110010011 ;
b00001000100000000000010110010011 ,
0"n
0.
#161
b01011 "b
b01011 A
b00000000000000000000000010001000 "#
b00000000000000000000000010001000 "c
1C
b00000000000000000000000000111000 E
b00000000000000000000000000110100 "(
b01011 J
b00001000100000000000010110010011 "-
1"n
b00000000000000000000000000110100 "o
1"5
b00000000000000000000000000111000 "7
b00001000100000000000010110010011 V
b00000000000000000000000010001000 "
b00000000000000000000000010001000 b
b00000000000000000000000011000100 c
b00000000000000000000000010001000 '
b00000000000000000000000010001000 (
b0000000000000000000000000000000000000000000000000000000000001110 +
b01011 "M
1.
b0000000000000000000000000000000000000000000000000000000000001101 n
10
b00000000000000000000000000110100 p
b01000 "S
b00000000000000000000000010001000 2
b00000000000000000000000000110100 "U
b00000000000000000000000010001000 5
b01011 6
b00001000100000000000010110010011 v
b00000000000000000000000000111000 7
b00000000000000000000000010001000 z
b00000000000000000000000000111000 {
b00001000100000000000010110010011 "]
#166
00
0C
0"5
1"9
b00001010010000000000010000010011 ;
b00001010010000000000010000010011 ,
0"n
0.
#171
b01000 "b
b01000 A
b00000000000000000000000010100100 "#
b00000000000000000000000010100100 "c
1C
b00000000000000000000000000111100 E
b00000000000000000000000000111000 "(
b01000 J
b00001010010000000000010000010011 "-
1"n
b00000000000000000000000000111000 "o
1"5
b00000000000000000000000000111100 "7
b00001010010000000000010000010011 V
b00000000000000000000000010100100 "
b00000000000000000000000010100100 b
b00000000000000000000000010100100 '
b00000000000000000000000010100100 (
b0000000000000000000000000000000000000000000000000000000000001111 +
b01000 "M
b00000000000000000000000010001000 m
1.
b0000000000000000000000000000000000000000000000000000000000001110 n
10
b00000000000000000000000000111000 p
b00100 "S
b00000000000000000000000010100100 2
b00000000000000000000000000111000 "U
b00000000000000000000000010100100 5
b01000 6
b00001010010000000000010000010011 v
b00000000000000000000000000111100 7
b00000000000000000000000010100100 z
b00000000000000000000000000111100 {
b00001010010000000000010000010011 "]
#176
00
0C
0"5
1"9
b00000110110100000000001000010011 ;
b00000110110100000000001000010011 ,
0"n
0.
#181
b00100 "b
b00100 A
b00000000000000000000000001101101 "#
b00000000000000000000000001101101 "c
1C
b00000000000000000000000001000000 E
b00000000000000000000000000111100 "(
b00100 J
b00000110110100000000001000010011 "-
1"n
b00000000000000000000000000111100 "o
1"5
b00000000000000000000000001000000 "7
b00000110110100000000001000010011 V
b00000000000000000000000010100100 "?
b00000000000000000000000001101101 "
b00000000000000000000000001101101 b
b00000000000000000000000001101101 '
b00000000000000000000000001101101 (
b0000000000000000000000000000000000000000000000000000000000010000 +
b00100 "M
1.
b0000000000000000000000000000000000000000000000000000000000001111 n
10
b00000000000000000000000000111100 p
b01101 "S
b00000000000000000000000001101101 2
b00000000000000000000000000111100 "U
b00000000000000000000000001101101 5
b00100 6
b00000110110100000000001000010011 v
b00000000000000000000000001000000 7
b00000000000000000000000001101101 z
b00000000000000000000000001000000 {
b00000110110100000000001000010011 "]
#186
00
0C
0"5
1"9
b00001011101000000000011110010011 ;
b00001011101000000000011110010011 ,
0"n
0.
