test_run_dir/should_do_a_random_lbu/Core.vcd
$date
2024-06-13T09:47+0000
$end
$version
0.2
$end
$comment

$end
$timescale 1ns  $end
$scope module Core $end
 $var wire 32 # io_rvfi_rvfi_mem_rdata $end
 $var wire 1 & register_file $end
 $var wire 1 ) data_gnt $end
 $var wire 5 * io_rvfi_rvfi_rs2_addr $end
 $var wire 64 + order $end
 $var wire 32 , next_instruction $end
 $var wire 1 - io_data_data_req $end
 $var wire 32 2 io_data_data_addr $end
 $var wire 32 3 io_rvfi_rvfi_rs1_rdata $end
 $var wire 1 4 io_instr_instr_req $end
 $var wire 32 7 io_instr_instr_addr $end
 $var wire 32 ; io_instr_instr_rdata $end
 $var wire 4 < mem_wmask $end
 $var wire 2 = io_rvfi_rvfi_mode $end
 $var wire 5 A io_rvfi_rvfi_rd_addr $end
 $var wire 4 B io_rvfi_rvfi_mem_wmask $end
 $var wire 32 Q mem_addr $end
 $var wire 1 T had_mem_req $end
 $var wire 2 ^ stall $end
 $var wire 4 d io_data_data_be $end
 $var wire 64 m io_rvfi_rvfi_order $end
 $var wire 1 s executionUnits_0 $end
 $var wire 1 t io_rvfi_rvfi_intr $end
 $var wire 32 u io_rvfi_rvfi_insn $end
 $var wire 1 v io_data_data_gnt $end
 $var wire 32 z io_rvfi_rvfi_pc_wdata $end
 $var wire 32 "! mem_rdata $end
 $var wire 5 "# io_rvfi_rvfi_rs1_addr $end
 $var wire 32 "' io_rvfi_rvfi_pc_rdata $end
 $var wire 4 ". mem_rmask $end
 $var wire 1 "/ io_data_data_we $end
 $var wire 1 "0 io_reset_rst_n $end
 $var wire 1 "3 io_rvfi_rvfi_trap $end
 $var wire 1 "4 clock $end
 $var wire 1 "8 io_instr_instr_gnt $end
 $var wire 32 ": mem_wdata $end
 $var wire 32 "; io_reset_boot_addr $end
 $var wire 32 "A io_data_data_wdata $end
 $var wire 1 "G reset $end
 $var wire 2 "H io_rvfi_rvfi_ixl $end
 $var wire 1 "P io_rvfi_rvfi_halt $end
 $var wire 32 "S io_rvfi_rvfi_rs2_rdata $end
 $var wire 32 "U io_data_data_rdata $end
 $var wire 1 "Y io_rvfi_rvfi_valid $end
 $var wire 32 "\ instruction $end
 $var wire 1 "^ pc $end
 $var wire 32 "b io_rvfi_rvfi_rd_wdata $end
 $var wire 32 "i io_rvfi_rvfi_mem_wdata $end
 $var wire 4 "j io_rvfi_rvfi_mem_rmask $end
 $var wire 32 "k io_rvfi_rvfi_mem_addr $end
  $scope module executionUnits_0.alu $end
  $upscope $end
  $scope module pc $end
   $var wire 1 n io_reset_rst_n $end
   $var wire 32 o pc $end
   $var wire 32 r io_reset_boot_addr $end
   $var wire 1 "1 reset $end
   $var wire 1 "5 io_pc_we $end
   $var wire 32 "6 io_pc_wdata $end
   $var wire 1 "m clock $end
   $var wire 32 "n io_pc $end
  $upscope $end
  $scope module executionUnits_0.branch_unit $end
  $upscope $end
  $scope module register_file $end
   $var wire 1 . clock $end
   $var wire 32 5 io_reg_write_data $end
   $var wire 5 6 io_reg_rd $end
   $var wire 1 : reset $end
   $var wire 1 > io_reg_write_en $end
   $var wire 1 G io_reset_rst_n $end
   $var wire 32 R registers_30 $end
   $var wire 32 S registers_31 $end
   $var wire 32 V registers_29 $end
   $var wire 32 W registers_27 $end
   $var wire 32 X registers_28 $end
   $var wire 32 Y registers_25 $end
   $var wire 32 Z registers_26 $end
   $var wire 32 [ registers_23 $end
   $var wire 32 \ registers_24 $end
   $var wire 32 ] registers_21 $end
   $var wire 32 _ registers_22 $end
   $var wire 32 ` registers_20 $end
   $var wire 32 b registers_18 $end
   $var wire 32 c registers_19 $end
   $var wire 32 e registers_16 $end
   $var wire 32 f registers_17 $end
   $var wire 32 g registers_14 $end
   $var wire 32 h registers_15 $end
   $var wire 32 i registers_12 $end
   $var wire 32 j registers_13 $end
   $var wire 32 k registers_10 $end
   $var wire 32 l registers_11 $end
   $var wire 32 "* io_reg_read_data1 $end
   $var wire 32 "+ io_reg_read_data2 $end
   $var wire 32 "< registers_9 $end
   $var wire 32 "= registers_7 $end
   $var wire 32 "> registers_8 $end
   $var wire 32 "? registers_5 $end
   $var wire 32 "@ registers_6 $end
   $var wire 32 "B registers_3 $end
   $var wire 32 "C registers_4 $end
   $var wire 32 "D registers_1 $end
   $var wire 32 "E registers_2 $end
   $var wire 32 "F registers_0 $end
   $var wire 5 "_ io_reg_rs1 $end
   $var wire 5 "` io_reg_rs2 $end
  $upscope $end
  $scope module executionUnits_0.control_unit $end
  $upscope $end
  $scope module executionUnits_0.decoder $end
  $upscope $end
  $scope module executionUnits_0 $end
   $var wire 4 / io_data_data_be $end
   $var wire 1 8 io_pc_pc_we $end
   $var wire 1 9 io_data_data_req $end
   $var wire 1 @ decoder $end
   $var wire 1 C clock $end
   $var wire 32 D io_data_data_wdata $end
   $var wire 32 E io_pc_pc_wdata $end
   $var wire 32 U io_instr $end
   $var wire 5 w io_reg_reg_rs2 $end
   $var wire 5 x io_reg_reg_rs1 $end
   $var wire 32 y io_data_data_addr $end
   $var wire 1 { io_data_data_we $end
   $var wire 2 } io_stall $end
   $var wire 32 "" io_reg_reg_write_data $end
   $var wire 32 "$ io_reset_boot_addr $end
   $var wire 1 "% branch_unit $end
   $var wire 32 "& io_reg_reg_read_data2 $end
   $var wire 32 "( io_reg_reg_read_data1 $end
   $var wire 1 "- io_reg_reg_write_en $end
   $var wire 1 "2 control_unit $end
   $var wire 1 "K io_valid $end
   $var wire 5 "L io_reg_reg_rd $end
   $var wire 1 "O alu $end
   $var wire 32 "T io_pc_pc $end
   $var wire 1 "X io_data_data_gnt $end
   $var wire 1 "] reset $end
   $var wire 1 "h io_reset_rst_n $end
    $scope module alu $end
     $var wire 32 ! io_alu_op1 $end
     $var wire 32 " io_alu_op2 $end
     $var wire 32 a io_alu_result $end
     $var wire 4 "7 io_alu_alu_op $end
    $upscope $end
    $scope module control_unit $end
     $var wire 3 $ io_ctrl_next_pc_select $end
     $var wire 1 % io_ctrl_data_req $end
     $var wire 1 0 clock $end
     $var wire 1 1 reset $end
     $var wire 2 ? io_ctrl_stall $end
     $var wire 1 N io_ctrl_alu_op_2_sel $end
     $var wire 1 p io_reset_rst_n $end
     $var wire 4 q io_ctrl_data_be $end
     $var wire 29 | io_ctrl_instr_type $end
     $var wire 1 ") io_ctrl_data_we $end
     $var wire 2 "9 stalled $end
     $var wire 1 "I io_ctrl_data_gnt $end
     $var wire 2 "J was_stalled $end
     $var wire 3 "W io_ctrl_reg_write_sel $end
     $var wire 1 "Z io_ctrl_alu_op_1_sel $end
     $var wire 4 "e io_ctrl_alu_control $end
     $var wire 1 "f io_ctrl_reg_we $end
    $upscope $end
    $scope module branch_unit $end
     $var wire 32 ' io_branch_alu_out $end
     $var wire 29 "V io_branch_instr_type $end
     $var wire 1 "l io_branch_branch_taken $end
    $upscope $end
    $scope module decoder $end
     $var wire 32 ( io_decoder_imm $end
     $var wire 1 F io_decoder_valid $end
     $var wire 29 H io_decoder_instr_type_j_4 $end
     $var wire 29 I io_decoder_instr_type_j_3 $end
     $var wire 5 J io_decoder_rd $end
     $var wire 29 K io_decoder_instr_type_j_6 $end
     $var wire 29 L io_decoder_instr_type_j_5 $end
     $var wire 29 M io_decoder_instr_type_j_7 $end
     $var wire 29 O io_decoder_instr_type_j_2 $end
     $var wire 29 P io_decoder_instr_type_j_1 $end
     $var wire 29 ~ io_decoder_instr_type $end
     $var wire 32 ", io_decoder_instr $end
     $var wire 3 "M funct3 $end
     $var wire 7 "N funct7 $end
     $var wire 5 "Q RS1 $end
     $var wire 5 "R RS2 $end
     $var wire 7 "[ opcode $end
     $var wire 5 "a RD $end
     $var wire 5 "c io_decoder_rs1 $end
     $var wire 5 "d io_decoder_rs2 $end
     $var wire 29 "g io_decoder_instr_type_j $end
    $upscope $end
  $upscope $end
$upscope $end
$enddefinitions $end
$dumpvars
00
b0000 "e
01
b00000000000000000000000000000000 ",
b00000000000000000000000000000000 ,
04
b00 =
b00000000000000000000000000000000 '
b0000 "j
b00000000000000000000000000000000 (
b00000000000000000000000000000000 "'
08
b00000000000000000000000000000000 #
b00000000000000000000000000000000 "&
09
b00000000000000000000000000000000 "
0:
b00000000000000000000000000000000 "$
b00000000000000000000000000000000 "+
b00000000000000000000000000000000 "*
0>
b00000000000000000000000000000000 !
b00000000000000000000000000000000 "(
b00000000000000000000000000000000 "?
0@
b00000000000000000000000000000000 ;
b00000000000000000000000000000000 ">
b00000000000000000000000000000 |
b00000000000000000000000000000000 "=
b00000000000000000000000000000000 "<
0C
b0000000 "N
b00000000000000000000000000000 ~
b00000000000000000000000000000000 "C
b00000000000000000000000000000000 7
b00000000000000000000000000000000 "B
b00000000000000000000000000000000 "A
0F
b00000000000000000000000000000000 "@
0G
b00000000000000000000000000000000 3
b00000000000000000000000000000000 "6
b00000000000000000000000000000000 2
b00000000000000000000000000000000 5
b00000000000000000000000000000000 ";
b00000000000000000000000000000000 ":
0N
b00000000000000000000000000000000 "S
0T
b00000000000000000000000000000000 "F
b00000000000000000000000000000000 "E
b00000000000000000000000000000000 "D
b00000000000000000000000000000000 "\
b00000000000000000000000000000000 "b
b0000 /
b0000 <
b00000000000000000000000000000000 "U
b00000000000000000000000000000000 "T
0n
0p
b00000000000000000000000000000 K
b00000000000000000000000000000 L
b00000000000000000000000000000 M
0s
0t
b00000000000000000000000000000 O
b00000000000000000000000000000 P
0v
0{
b00000000000000000000000000000 H
b00000000000000000000000000000 I
b0000000000000000000000000000000000000000000000000000000000000000 m
b0000000 "[
0"%
b00000000000000000000000000000000 ""
b00000000000000000000000000000000 "!
0")
0"-
0"/
0"0
0"1
0"2
b000 "W
0"3
0"4
0"5
b00000 "L
0"8
b00 "H
b00 "J
0"G
0"I
b0000000000000000000000000000000000000000000000000000000000000000 +
0"K
b00000 *
0"O
0"P
b00 "9
b00000 6
0"X
0"Y
0"Z
b00000 "#
0"]
0"^
b00000 A
0"f
0"h
b00000 J
0"l
0"m
b00000000000000000000000000000000 k
b00000000000000000000000000000000 "n
b00000000000000000000000000000000 j
b0000 B
b00000000000000000000000000000000 l
b00 }
b00000000000000000000000000000000 g
b00000000000000000000000000000000 f
b00000000000000000000000000000000 i
b00000000000000000000000000000000 h
b00000000000000000000000000000000 c
b00000000000000000000000000000000 b
b00000000000000000000000000000000 e
b0000 ".
b00000000000000000000000000000000 "k
b00000000000000000000000000000000 _
b00000000000000000000000000000000 "i
b00000000000000000000000000000000 a
b00000000000000000000000000000000 `
b00000000000000000000000000000000 z
b0000 "7
b00000000000000000000000000000000 y
b00000000000000000000000000000000 r
b00000000000000000000000000000000 u
b00 ^
b00000000000000000000000000000000 o
b0000 d
b00000 w
b00000000000000000000000000000 "V
b000 $
b00000 x
b00000 "a
b00000 "`
b00000000000000000000000000000000 E
b00000 "c
b00000000000000000000000000000000 D
b00000 "d
b00000000000000000000000000000000 [
b00000000000000000000000000000000 Z
b00000000000000000000000000000000 ]
b00000000000000000000000000000000 \
b00000000000000000000000000000000 W
b0000 q
0%
b00000000000000000000000000000 "g
b00000000000000000000000000000000 V
0&
b00000000000000000000000000000000 Y
b00000 "_
b00000000000000000000000000000000 X
b00000000000000000000000000000000 S
b00000 "Q
0)
b00000000000000000000000000000000 R
b00 ?
b00000000000000000000000000000000 U
b000 "M
b00000 "R
0-
0.
b00000000000000000000000000000000 Q
$end
#0
1"f
b00000000000000000000000000000100 E
b11111110000000000000000000000 "g
b11111110000000000000000000000 H
b11111110000000000000000000000 I
b11111110000000000000000000000 K
1"-
b11111110000000000000000000000 L
b11111110000000000000000000000 M
1N
b11111110000000000000000000000 O
1"1
b11111110000000000000000000000 P
b01 ^
1"G
b1111111111111111111111111111111111111111111111111111111111111111 m
11
14
b00100110000000000000000000000 "V
18
b1111111 "[
1:
1"]
b00100110000000000000000000000 |
b00100110000000000000000000000 ~
#1
1C
b11111111111111111000000000000 "g
b11111111110000000000000000000 H
b11111111111111111111111111111111 ",
b111 "M
1"m
b11111111110000000000000000000 L
b1111111 "N
b11111111110000000000000000000 M
1.
b11111 "Q
10
b11111111110000000000000000000 P
b11111 "R
1"4
b11111111111111111111111111111111 U
b11111111111111111111111111111111 u
b11111111111111111111111111111111 "\
b11111 "a
#6
00
01
0"4
0C
0"G
0:
0"]
0"m
0.
0"1
#11
10
1"4
1C
1"m
1.
#16
00
1p
0"4
0C
1"h
1G
0"m
b11111111111111111111111111111111 ,
0.
1n
1"0
#21
10
1"4
1C
1"m
1.
#26
00
0"4
0C
04
1"8
1"Y
b00000000010100000000001010010011 ;
0"m
b00000000010100000000001010010011 ,
0.
b00 ^
#31
b00000000000000000000000000000101 ""
b00000000000000000000000000000101 "b
b00101 A
1C
b00100110000000000000000000000 "g
1F
b00100110000000000000000000000 H
b00100110000000000000000000000 I
b00101 J
b00000000010100000000001010010011 ",
b00100110000000000000000000000 K
1"m
b00100110000000000000000000000 L
b00100110000000000000000000000 M
b00100110000000000000000000000 O
b00100110000000000000000000000 P
1"4
1"5
b00000000000000000000000000000100 "6
b00000000010100000000001010010011 U
b00000000000000000000000000000101 a
b00000000000000000000000000000101 "
b00000000000000000000000000000101 '
b00000000000000000000000000000101 (
1"K
b00101 "L
b0000000000000000000000000000000000000000000000000000000000000001 +
b000 "M
b0000000 "N
b0000000000000000000000000000000000000000000000000000000000000000 m
1.
b00000 "Q
10
b00101 "R
b00000000000000000000000000000101 2
14
b00000000000000000000000000000101 5
b00000000010100000000001010010011 u
b00101 6
b00000000000000000000000000000100 7
b00000000000000000000000000000101 y
b0010011 "[
b00000000000000000000000000000100 z
b00000000010100000000001010010011 "\
1>
b00101 "a
#36
00
0"4
0C
1"8
b00000101001000000000010100010011 ;
0"m
b00000101001000000000010100010011 ,
0.
#41
b00000000000000000000000001010010 ""
b00000000000000000000000001010010 "b
b01010 A
1C
b00000000000000000000000000001000 E
b00000000000000000000000000000100 "'
b00100110001111111000000000000 "g
b01010 J
b00000101001000000000010100010011 ",
1"m
b00000000000000000000000000000100 "n
1"4
b00000000000000000000000000001000 "6
b00000101001000000000010100010011 U
b00000000000000000000000000000101 "?
b00000000000000000000000001010010 a
b00000000000000000000000001010010 "
b00000000000000000000000001010010 '
b00000000000000000000000001010010 (
b01010 "L
b0000000000000000000000000000000000000000000000000000000000000010 +
b1111111 "N
b0000000000000000000000000000000000000000000000000000000000000001 m
1.
b00000000000000000000000000000100 o
10
b10010 "R
b00000000000000000000000001010010 2
b00000000000000000000000000000100 "T
b00000000000000000000000001010010 5
b00000101001000000000010100010011 u
b01010 6
b00000000000000000000000000001000 7
b00000000000000000000000001010010 y
b00000000000000000000000000001000 z
b00000101001000000000010100010011 "\
b01010 "a
#46
00
0"4
0C
1"8
b00000100101000000000011100010011 ;
0"m
b00000100101000000000011100010011 ,
0.
#51
b00000000000000000000000001001010 ""
b00000000000000000000000001001010 "b
b01110 A
1C
b00000000000000000000000000001100 E
b00000000000000000000000000001000 "'
b01110 J
b00000100101000000000011100010011 ",
1"m
b00000000000000000000000000001000 "n
1"4
b00000000000000000000000000001100 "6
b00000100101000000000011100010011 U
b00000000000000000000000001001010 a
b00000000000000000000000001001010 "
b00000000000000000000000001001010 '
b00000000000000000000000001001010 (
b01110 "L
b0000000000000000000000000000000000000000000000000000000000000011 +
b00000000000000000000000001010010 k
b0000000000000000000000000000000000000000000000000000000000000010 m
1.
b00000000000000000000000000001000 o
10
b01010 "R
b00000000000000000000000001001010 2
b00000000000000000000000000001000 "T
b00000000000000000000000001001010 5
b00000100101000000000011100010011 u
b01110 6
b00000000000000000000000000001100 7
b00000000000000000000000001001010 y
b00000000000000000000000000001100 z
b00000100101000000000011100010011 "\
b01110 "a
#56
00
0"4
0C
1"8
b00000101001000000000000010010011 ;
0"m
b00000101001000000000000010010011 ,
0.
#61
b00000000000000000000000001010010 ""
b00000000000000000000000001010010 "b
b00001 A
1C
b00000000000000000000000000010000 E
b00000000000000000000000000001100 "'
b00001 J
b00000101001000000000000010010011 ",
1"m
b00000000000000000000000000001100 "n
1"4
b00000000000000000000000000010000 "6
b00000101001000000000000010010011 U
b00000000000000000000000001010010 a
b00000000000000000000000001010010 "
b00000000000000000000000001010010 '
b00000000000000000000000001001010 g
b00000000000000000000000001010010 (
b00001 "L
b0000000000000000000000000000000000000000000000000000000000000100 +
b0000000000000000000000000000000000000000000000000000000000000011 m
1.
b00000000000000000000000000001100 o
10
b10010 "R
b00000000000000000000000001010010 2
b00000000000000000000000000001100 "T
b00000000000000000000000001010010 5
b00000101001000000000000010010011 u
b00001 6
b00000000000000000000000000010000 7
b00000000000000000000000001010010 y
b00000000000000000000000000010000 z
b00000101001000000000000010010011 "\
b00001 "a
#66
00
0"4
0C
1"8
b00001111100100000000001100010011 ;
0"m
b00001111100100000000001100010011 ,
0.
#71
b00000000000000000000000011111001 ""
b00000000000000000000000011111001 "b
b00110 A
1C
b00000000000000000000000000010100 E
b00000000000000000000000000010000 "'
b00110 J
b00001111100100000000001100010011 ",
1"m
b00000000000000000000000000010000 "n
1"4
b00000000000000000000000000010100 "6
b00001111100100000000001100010011 U
b00000000000000000000000011111001 a
b00000000000000000000000011111001 "
b00000000000000000000000001010010 "D
b00000000000000000000000011111001 '
b00000000000000000000000011111001 (
b00110 "L
b0000000000000000000000000000000000000000000000000000000000000101 +
b0000000000000000000000000000000000000000000000000000000000000100 m
1.
b00000000000000000000000000010000 o
10
b11001 "R
b00000000000000000000000011111001 2
b00000000000000000000000000010000 "T
b00000000000000000000000011111001 5
b00001111100100000000001100010011 u
b00110 6
b00000000000000000000000000010100 7
b00000000000000000000000011111001 y
b00000000000000000000000000010100 z
b00001111100100000000001100010011 "\
b00110 "a
#76
00
0"4
0C
1"8
b00000111101000000000010010010011 ;
0"m
b00000111101000000000010010010011 ,
0.
#81
b00000000000000000000000001111010 ""
b00000000000000000000000001111010 "b
b01001 A
1C
b00000000000000000000000000011000 E
b00000000000000000000000000010100 "'
b01001 J
b00000111101000000000010010010011 ",
1"m
b00000000000000000000000000010100 "n
1"4
b00000000000000000000000000011000 "6
b00000111101000000000010010010011 U
b00000000000000000000000011111001 "@
b00000000000000000000000001111010 a
b00000000000000000000000001111010 "
b00000000000000000000000001111010 '
b00000000000000000000000001111010 (
b01001 "L
b0000000000000000000000000000000000000000000000000000000000000110 +
b0000000000000000000000000000000000000000000000000000000000000101 m
1.
b00000000000000000000000000010100 o
10
b11010 "R
b00000000000000000000000001111010 2
b00000000000000000000000000010100 "T
b00000000000000000000000001111010 5
b00000111101000000000010010010011 u
b01001 6
b00000000000000000000000000011000 7
b00000000000000000000000001111010 y
b00000000000000000000000000011000 z
b00000111101000000000010010010011 "\
b01001 "a
#86
00
0"4
0C
1"8
b00001010111000000000011010010011 ;
0"m
b00001010111000000000011010010011 ,
0.
#91
b00000000000000000000000010101110 ""
b00000000000000000000000010101110 "b
b01101 A
1C
b00000000000000000000000000011100 E
b00000000000000000000000000011000 "'
b01101 J
b00001010111000000000011010010011 ",
1"m
b00000000000000000000000000011000 "n
1"4
b00000000000000000000000000011100 "6
b00001010111000000000011010010011 U
b00000000000000000000000001111010 "<
b00000000000000000000000010101110 a
b00000000000000000000000010101110 "
b00000000000000000000000010101110 '
b00000000000000000000000010101110 (
b01101 "L
b0000000000000000000000000000000000000000000000000000000000000111 +
b0000000000000000000000000000000000000000000000000000000000000110 m
1.
b00000000000000000000000000011000 o
10
b01110 "R
b00000000000000000000000010101110 2
b00000000000000000000000000011000 "T
b00000000000000000000000010101110 5
b00001010111000000000011010010011 u
b01101 6
b00000000000000000000000000011100 7
b00000000000000000000000010101110 y
b00000000000000000000000000011100 z
b00001010111000000000011010010011 "\
b01101 "a
#96
00
0"4
0C
1"8
b00001101110000000000000100010011 ;
0"m
b00001101110000000000000100010011 ,
0.
#101
b00000000000000000000000011011100 ""
b00000000000000000000000011011100 "b
b00010 A
1C
b00000000000000000000000000100000 E
b00000000000000000000000000011100 "'
b00010 J
b00001101110000000000000100010011 ",
1"m
b00000000000000000000000000011100 "n
1"4
b00000000000000000000000000100000 "6
b00001101110000000000000100010011 U
b00000000000000000000000011011100 a
b00000000000000000000000011011100 "
b00000000000000000000000011011100 '
b00000000000000000000000011011100 (
b00000000000000000000000010101110 j
b00010 "L
b0000000000000000000000000000000000000000000000000000000000001000 +
b0000000000000000000000000000000000000000000000000000000000000111 m
1.
b00000000000000000000000000011100 o
10
b11100 "R
b00000000000000000000000011011100 2
b00000000000000000000000000011100 "T
b00000000000000000000000011011100 5
b00001101110000000000000100010011 u
b00010 6
b00000000000000000000000000100000 7
b00000000000000000000000011011100 y
b00000000000000000000000000100000 z
b00001101110000000000000100010011 "\
b00010 "a
#106
00
0"4
0C
1"8
b00001100110000000000100010010011 ;
0"m
b00001100110000000000100010010011 ,
0.
#111
b00000000000000000000000011001100 ""
b00000000000000000000000011001100 "b
b10001 A
1C
b00000000000000000000000000100100 E
b00000000000000000000000000100000 "'
b10001 J
b00001100110000000000100010010011 ",
1"m
b00000000000000000000000000100000 "n
1"4
b00000000000000000000000000100100 "6
b00001100110000000000100010010011 U
b00000000000000000000000011001100 a
b00000000000000000000000011001100 "
b00000000000000000000000011011100 "E
b00000000000000000000000011001100 '
b00000000000000000000000011001100 (
b10001 "L
b0000000000000000000000000000000000000000000000000000000000001001 +
b0000000000000000000000000000000000000000000000000000000000001000 m
1.
b00000000000000000000000000100000 o
10
b01100 "R
b00000000000000000000000011001100 2
b00000000000000000000000000100000 "T
b00000000000000000000000011001100 5
b00001100110000000000100010010011 u
b10001 6
b00000000000000000000000000100100 7
b00000000000000000000000011001100 y
b00000000000000000000000000100100 z
b00001100110000000000100010010011 "\
b10001 "a
#116
00
0"4
0C
1"8
b00000100001000000000011000010011 ;
0"m
b00000100001000000000011000010011 ,
0.
#121
b00000000000000000000000001000010 ""
b00000000000000000000000001000010 "b
b01100 A
1C
b00000000000000000000000000101000 E
b00000000000000000000000000100100 "'
b01100 J
b00000100001000000000011000010011 ",
1"m
b00000000000000000000000000100100 "n
1"4
b00000000000000000000000000101000 "6
b00000100001000000000011000010011 U
b00000000000000000000000001000010 a
b00000000000000000000000001000010 "
b00000000000000000000000011001100 f
b00000000000000000000000001000010 '
b00000000000000000000000001000010 (
b01100 "L
b0000000000000000000000000000000000000000000000000000000000001010 +
b0000000000000000000000000000000000000000000000000000000000001001 m
1.
b00000000000000000000000000100100 o
10
b00010 "R
b00000000000000000000000001000010 2
b00000000000000000000000000100100 "T
b00000000000000000000000001000010 5
b00000100001000000000011000010011 u
b01100 6
b00000000000000000000000000101000 7
b00000000000000000000000001000010 y
b00000000000000000000000000101000 z
b00000100001000000000011000010011 "\
b01100 "a
#126
00
0"4
0C
1"8
b00000011100000000000001110010011 ;
0"m
b00000011100000000000001110010011 ,
0.
#131
b00000000000000000000000000111000 ""
b00000000000000000000000000111000 "b
b00111 A
1C
b00000000000000000000000000101100 E
b00000000000000000000000000101000 "'
b00100110000000001000000000000 "g
b00111 J
b00000011100000000000001110010011 ",
1"m
b00000000000000000000000000101000 "n
1"4
b00000000000000000000000000101100 "6
b00000011100000000000001110010011 U
b00000000000000000000000000111000 a
b00000000000000000000000000111000 "
b00000000000000000000000000111000 '
b00000000000000000000000000111000 (
b00000000000000000000000001000010 i
b00111 "L
b0000000000000000000000000000000000000000000000000000000000001011 +
b0000001 "N
b0000000000000000000000000000000000000000000000000000000000001010 m
1.
b00000000000000000000000000101000 o
10
b11000 "R
b00000000000000000000000000111000 2
b00000000000000000000000000101000 "T
b00000000000000000000000000111000 5
b00000011100000000000001110010011 u
b00111 6
b00000000000000000000000000101100 7
b00000000000000000000000000111000 y
b00000000000000000000000000101100 z
b00000011100000000000001110010011 "\
b00111 "a
#136
00
0"4
0C
1"8
b00001100100000000000000110010011 ;
0"m
b00001100100000000000000110010011 ,
0.
#141
b00000000000000000000000011001000 ""
b00000000000000000000000011001000 "b
b00011 A
1C
b00000000000000000000000000110000 E
b00000000000000000000000000101100 "'
b00100110001111111000000000000 "g
b00011 J
b00001100100000000000000110010011 ",
1"m
b00000000000000000000000000101100 "n
1"4
b00000000000000000000000000110000 "6
b00001100100000000000000110010011 U
b00000000000000000000000000111000 "=
b00000000000000000000000011001000 a
b00000000000000000000000011001000 "
b00000000000000000000000011001000 '
b00000000000000000000000011001000 (
b00011 "L
b0000000000000000000000000000000000000000000000000000000000001100 +
b1111111 "N
b0000000000000000000000000000000000000000000000000000000000001011 m
1.
b00000000000000000000000000101100 o
10
b01000 "R
b00000000000000000000000011001000 2
b00000000000000000000000000101100 "T
b00000000000000000000000011001000 5
b00001100100000000000000110010011 u
b00011 6
b00000000000000000000000000110000 7
b00000000000000000000000011001000 y
b00000000000000000000000000110000 z
b00001100100000000000000110010011 "\
b00011 "a
#146
00
0"4
0C
1"8
b00000101011000000000100100010011 ;
0"m
b00000101011000000000100100010011 ,
0.
#151
b00000000000000000000000001010110 ""
b00000000000000000000000001010110 "b
b10010 A
1C
b00000000000000000000000000110100 E
b00000000000000000000000000110000 "'
b10010 J
b00000101011000000000100100010011 ",
1"m
b00000000000000000000000000110000 "n
1"4
b00000000000000000000000000110100 "6
b00000101011000000000100100010011 U
b00000000000000000000000011001000 "B
b00000000000000000000000001010110 a
b00000000000000000000000001010110 "
b00000000000000000000000001010110 '
b00000000000000000000000001010110 (
b10010 "L
b0000000000000000000000000000000000000000000000000000000000001101 +
b0000000000000000000000000000000000000000000000000000000000001100 m
1.
b00000000000000000000000000110000 o
10
b10110 "R
b00000000000000000000000001010110 2
b00000000000000000000000000110000 "T
b00000000000000000000000001010110 5
b00000101011000000000100100010011 u
b10010 6
b00000000000000000000000000110100 7
b00000000000000000000000001010110 y
b00000000000000000000000000110100 z
b00000101011000000000100100010011 "\
b10010 "a
#156
00
0"4
0C
1"8
b00001011111100000000010110010011 ;
0"m
b00001011111100000000010110010011 ,
0.
#161
b00000000000000000000000010111111 ""
b00000000000000000000000010111111 "b
b01011 A
1C
b00000000000000000000000000111000 E
b00000000000000000000000000110100 "'
b01011 J
b00001011111100000000010110010011 ",
1"m
b00000000000000000000000000110100 "n
1"4
b00000000000000000000000000111000 "6
b00001011111100000000010110010011 U
b00000000000000000000000010111111 a
b00000000000000000000000010111111 "
b00000000000000000000000001010110 b
b00000000000000000000000010111111 '
b00000000000000000000000010111111 (
b01011 "L
b0000000000000000000000000000000000000000000000000000000000001110 +
b0000000000000000000000000000000000000000000000000000000000001101 m
1.
b00000000000000000000000000110100 o
10
b11111 "R
b00000000000000000000000010111111 2
b00000000000000000000000000110100 "T
b00000000000000000000000010111111 5
b00001011111100000000010110010011 u
b01011 6
b00000000000000000000000000111000 7
b00000000000000000000000010111111 y
b00000000000000000000000000111000 z
b00001011111100000000010110010011 "\
b01011 "a
#166
00
0"4
0C
1"8
b00001100010100000000010000010011 ;
0"m
b00001100010100000000010000010011 ,
0.
#171
b00000000000000000000000011000101 ""
b00000000000000000000000011000101 "b
b01000 A
1C
b00000000000000000000000000111100 E
b00000000000000000000000000111000 "'
b01000 J
b00001100010100000000010000010011 ",
1"m
b00000000000000000000000000111000 "n
1"4
b00000000000000000000000000111100 "6
b00001100010100000000010000010011 U
b00000000000000000000000011000101 a
b00000000000000000000000011000101 "
b00000000000000000000000011000101 '
b00000000000000000000000011000101 (
b01000 "L
b0000000000000000000000000000000000000000000000000000000000001111 +
b00000000000000000000000010111111 l
b0000000000000000000000000000000000000000000000000000000000001110 m
1.
b00000000000000000000000000111000 o
10
b00101 "R
b00000000000000000000000011000101 2
b00000000000000000000000000111000 "T
b00000000000000000000000011000101 5
b00001100010100000000010000010011 u
b01000 6
b00000000000000000000000000111100 7
b00000000000000000000000011000101 y
b00000000000000000000000000111100 z
b00001100010100000000010000010011 "\
b01000 "a
#176
00
0"4
0C
1"8
b00001111111000000000001000010011 ;
0"m
b00001111111000000000001000010011 ,
0.
#181
b00000000000000000000000011111110 ""
b00000000000000000000000011111110 "b
b00100 A
1C
b00000000000000000000000001000000 E
b00000000000000000000000000111100 "'
b00100 J
b00001111111000000000001000010011 ",
1"m
b00000000000000000000000000111100 "n
1"4
b00000000000000000000000001000000 "6
b00001111111000000000001000010011 U
b00000000000000000000000011000101 ">
b00000000000000000000000011111110 a
b00000000000000000000000011111110 "
b00000000000000000000000011111110 '
b00000000000000000000000011111110 (
b00100 "L
b0000000000000000000000000000000000000000000000000000000000010000 +
b0000000000000000000000000000000000000000000000000000000000001111 m
1.
b00000000000000000000000000111100 o
10
b11110 "R
b00000000000000000000000011111110 2
b00000000000000000000000000111100 "T
b00000000000000000000000011111110 5
b00001111111000000000001000010011 u
b00100 6
b00000000000000000000000001000000 7
b00000000000000000000000011111110 y
b00000000000000000000000001000000 z
b00001111111000000000001000010011 "\
b00100 "a
#186
00
0"4
0C
1"8
b00000011110000000000011110010011 ;
0"m
b00000011110000000000011110010011 ,
0.
