test_run_dir/should_do_a_random_slli/Core.vcd
$date
2024-06-08T14:11+0000
$end
$version
0.2
$end
$comment

$end
$timescale 1ns  $end
$scope module Core $end
 $var wire 32 # io_rvfi_rvfi_mem_rdata $end
 $var wire 1 & register_file $end
 $var wire 1 ) data_gnt $end
 $var wire 5 * io_rvfi_rvfi_rs2_addr $end
 $var wire 64 + order $end
 $var wire 32 , next_instruction $end
 $var wire 1 - io_data_data_req $end
 $var wire 32 2 io_data_data_addr $end
 $var wire 32 3 io_rvfi_rvfi_rs1_rdata $end
 $var wire 1 4 io_instr_instr_req $end
 $var wire 32 7 io_instr_instr_addr $end
 $var wire 32 ; io_instr_instr_rdata $end
 $var wire 4 < mem_wmask $end
 $var wire 2 = io_rvfi_rvfi_mode $end
 $var wire 5 A io_rvfi_rvfi_rd_addr $end
 $var wire 4 B io_rvfi_rvfi_mem_wmask $end
 $var wire 32 O mem_addr $end
 $var wire 1 R had_mem_req $end
 $var wire 2 \ stall $end
 $var wire 4 b io_data_data_be $end
 $var wire 64 k io_rvfi_rvfi_order $end
 $var wire 1 q executionUnits_0 $end
 $var wire 1 r io_rvfi_rvfi_intr $end
 $var wire 32 s io_rvfi_rvfi_insn $end
 $var wire 1 t io_data_data_gnt $end
 $var wire 32 x io_rvfi_rvfi_pc_wdata $end
 $var wire 32 } mem_rdata $end
 $var wire 5 "! io_rvfi_rvfi_rs1_addr $end
 $var wire 32 "% io_rvfi_rvfi_pc_rdata $end
 $var wire 4 ", mem_rmask $end
 $var wire 1 "- io_data_data_we $end
 $var wire 1 ". io_reset_rst_n $end
 $var wire 1 "1 io_rvfi_rvfi_trap $end
 $var wire 1 "2 clock $end
 $var wire 1 "6 io_instr_instr_gnt $end
 $var wire 32 "8 mem_wdata $end
 $var wire 32 "9 io_reset_boot_addr $end
 $var wire 32 "? io_data_data_wdata $end
 $var wire 1 "E reset $end
 $var wire 2 "F io_rvfi_rvfi_ixl $end
 $var wire 1 "N io_rvfi_rvfi_halt $end
 $var wire 32 "Q io_rvfi_rvfi_rs2_rdata $end
 $var wire 32 "S io_data_data_rdata $end
 $var wire 1 "W io_rvfi_rvfi_valid $end
 $var wire 32 "Z instruction $end
 $var wire 1 "\ pc $end
 $var wire 32 "` io_rvfi_rvfi_rd_wdata $end
 $var wire 32 "g io_rvfi_rvfi_mem_wdata $end
 $var wire 4 "h io_rvfi_rvfi_mem_rmask $end
 $var wire 32 "i io_rvfi_rvfi_mem_addr $end
  $scope module executionUnits_0.alu $end
  $upscope $end
  $scope module pc $end
   $var wire 1 l io_reset_rst_n $end
   $var wire 32 m pc $end
   $var wire 32 p io_reset_boot_addr $end
   $var wire 1 "/ reset $end
   $var wire 1 "3 io_pc_we $end
   $var wire 32 "4 io_pc_wdata $end
   $var wire 1 "k clock $end
   $var wire 32 "l io_pc $end
  $upscope $end
  $scope module executionUnits_0.branch_unit $end
  $upscope $end
  $scope module register_file $end
   $var wire 1 . clock $end
   $var wire 32 5 io_reg_write_data $end
   $var wire 5 6 io_reg_rd $end
   $var wire 1 : reset $end
   $var wire 1 > io_reg_write_en $end
   $var wire 1 G io_reset_rst_n $end
   $var wire 32 P registers_30 $end
   $var wire 32 Q registers_31 $end
   $var wire 32 T registers_29 $end
   $var wire 32 U registers_27 $end
   $var wire 32 V registers_28 $end
   $var wire 32 W registers_25 $end
   $var wire 32 X registers_26 $end
   $var wire 32 Y registers_23 $end
   $var wire 32 Z registers_24 $end
   $var wire 32 [ registers_21 $end
   $var wire 32 ] registers_22 $end
   $var wire 32 ^ registers_20 $end
   $var wire 32 ` registers_18 $end
   $var wire 32 a registers_19 $end
   $var wire 32 c registers_16 $end
   $var wire 32 d registers_17 $end
   $var wire 32 e registers_14 $end
   $var wire 32 f registers_15 $end
   $var wire 32 g registers_12 $end
   $var wire 32 h registers_13 $end
   $var wire 32 i registers_10 $end
   $var wire 32 j registers_11 $end
   $var wire 32 "( io_reg_read_data1 $end
   $var wire 32 ") io_reg_read_data2 $end
   $var wire 32 ": registers_9 $end
   $var wire 32 "; registers_7 $end
   $var wire 32 "< registers_8 $end
   $var wire 32 "= registers_5 $end
   $var wire 32 "> registers_6 $end
   $var wire 32 "@ registers_3 $end
   $var wire 32 "A registers_4 $end
   $var wire 32 "B registers_1 $end
   $var wire 32 "C registers_2 $end
   $var wire 32 "D registers_0 $end
   $var wire 5 "] io_reg_rs1 $end
   $var wire 5 "^ io_reg_rs2 $end
  $upscope $end
  $scope module executionUnits_0.control_unit $end
  $upscope $end
  $scope module executionUnits_0.decoder $end
  $upscope $end
  $scope module executionUnits_0 $end
   $var wire 4 / io_data_data_be $end
   $var wire 1 8 io_pc_pc_we $end
   $var wire 1 9 io_data_data_req $end
   $var wire 1 @ decoder $end
   $var wire 1 C clock $end
   $var wire 32 D io_data_data_wdata $end
   $var wire 32 E io_pc_pc_wdata $end
   $var wire 32 S io_instr $end
   $var wire 5 u io_reg_reg_rs2 $end
   $var wire 5 v io_reg_reg_rs1 $end
   $var wire 32 w io_data_data_addr $end
   $var wire 1 y io_data_data_we $end
   $var wire 2 { io_stall $end
   $var wire 32 ~ io_reg_reg_write_data $end
   $var wire 32 "" io_reset_boot_addr $end
   $var wire 1 "# branch_unit $end
   $var wire 32 "$ io_reg_reg_read_data2 $end
   $var wire 32 "& io_reg_reg_read_data1 $end
   $var wire 1 "+ io_reg_reg_write_en $end
   $var wire 1 "0 control_unit $end
   $var wire 1 "I io_valid $end
   $var wire 5 "J io_reg_reg_rd $end
   $var wire 1 "M alu $end
   $var wire 32 "R io_pc_pc $end
   $var wire 1 "V io_data_data_gnt $end
   $var wire 1 "[ reset $end
   $var wire 1 "f io_reset_rst_n $end
    $scope module alu $end
     $var wire 32 ! io_alu_op1 $end
     $var wire 32 " io_alu_op2 $end
     $var wire 32 _ io_alu_result $end
     $var wire 4 "5 io_alu_alu_op $end
    $upscope $end
    $scope module control_unit $end
     $var wire 2 $ io_ctrl_next_pc_select $end
     $var wire 1 % io_ctrl_data_req $end
     $var wire 1 0 clock $end
     $var wire 1 1 reset $end
     $var wire 2 ? io_ctrl_stall $end
     $var wire 1 L io_ctrl_alu_op_2_sel $end
     $var wire 1 n io_reset_rst_n $end
     $var wire 4 o io_ctrl_data_be $end
     $var wire 29 z io_ctrl_instr_type $end
     $var wire 1 "' io_ctrl_data_we $end
     $var wire 2 "7 stalled $end
     $var wire 1 "G io_ctrl_data_gnt $end
     $var wire 2 "H was_stalled $end
     $var wire 3 "U io_ctrl_reg_write_sel $end
     $var wire 1 "X io_ctrl_alu_op_1_sel $end
     $var wire 4 "c io_ctrl_alu_control $end
     $var wire 1 "d io_ctrl_reg_we $end
    $upscope $end
    $scope module branch_unit $end
     $var wire 32 ' io_branch_alu_out $end
     $var wire 29 "T io_branch_instr_type $end
     $var wire 1 "j io_branch_branch_taken $end
    $upscope $end
    $scope module decoder $end
     $var wire 32 ( io_decoder_imm $end
     $var wire 1 F io_decoder_valid $end
     $var wire 29 H io_decoder_instr_type_j_4 $end
     $var wire 29 I io_decoder_instr_type_j_3 $end
     $var wire 5 J io_decoder_rd $end
     $var wire 29 K io_decoder_instr_type_j_5 $end
     $var wire 29 M io_decoder_instr_type_j_2 $end
     $var wire 29 N io_decoder_instr_type_j_1 $end
     $var wire 29 | io_decoder_instr_type $end
     $var wire 32 "* io_decoder_instr $end
     $var wire 3 "K funct3 $end
     $var wire 7 "L funct7 $end
     $var wire 5 "O RS1 $end
     $var wire 5 "P RS2 $end
     $var wire 7 "Y opcode $end
     $var wire 5 "_ RD $end
     $var wire 5 "a io_decoder_rs1 $end
     $var wire 5 "b io_decoder_rs2 $end
     $var wire 29 "e io_decoder_instr_type_j $end
    $upscope $end
  $upscope $end
$upscope $end
$enddefinitions $end
$dumpvars
00
01
b00000000000000000000000000000000 ,
04
b00 =
b00000000000000000000000000000000 '
b0000 "h
b00000000000000000000000000000000 (
08
b00000000000000000000000000000000 #
b00000000000000000000000000000000 "&
09
b00000000000000000000000000000000 "
b00000000000000000000000000000000 "%
0:
b00000000000000000000000000000000 "$
b00000000000000000000000000000000 "*
b00000000000000000000000000000000 ")
0>
b00000000000000000000000000000000 !
b00000000000000000000000000000000 "(
b00000000000000000000000000000 z
b00000000000000000000000000000000 "?
0@
b00000000000000000000000000000000 ;
b00000000000000000000000000000000 ">
b0000000 "L
b00000000000000000000000000000 |
b00000000000000000000000000000000 "=
b00000000000000000000000000000000 "<
0C
b00000000000000000000000000000000 "C
b00000000000000000000000000000000 7
b00000000000000000000000000000000 "B
b00000000000000000000000000000000 "A
0F
b00000000000000000000000000000000 "@
0G
b00000000000000000000000000000000 3
b00000000000000000000000000000000 2
b00000000000000000000000000000000 5
b00000000000000000000000000000000 "4
b00000000000000000000000000000000 ";
0L
b00000000000000000000000000000000 ":
b00 $
b00000000000000000000000000000000 "9
b00000000000000000000000000000000 "8
0R
b00000000000000000000000000000000 "S
b00000000000000000000000000000000 "R
b00000000000000000000000000000000 "Q
b00000000000000000000000000000000 "D
b0000 /
b00000000000000000000000000000000 "`
b0000 <
0l
b00000000000000000000000000000000 "Z
0n
b00000000000000000000000000000 K
0q
0r
b00000000000000000000000000000 M
b00000000000000000000000000000 N
0t
0y
b00000000000000000000000000000 H
b00000000000000000000000000000 I
b0000000000000000000000000000000000000000000000000000000000000000 k
b0000000 "Y
0"#
b00000000000000000000000000000000 ""
0"'
0"+
0"-
0".
0"/
0"0
0"1
0"2
0"3
b000 "U
b00000 "J
0"6
b00000 "O
b00 "H
0"E
0"G
b00 "F
0"I
b0000000000000000000000000000000000000000000000000000000000000000 +
b00000 *
0"M
0"N
0"V
0"W
b00000 6
b00 "7
0"X
b00000 "!
0"[
0"\
b00000000000000000000000000000000 ~
b00000 A
0"d
0"f
0"j
0"k
b00000 J
b00000000000000000000000000000000 j
b0000 B
b00000000000000000000000000000000 m
b00000000000000000000000000000000 "l
b00000000000000000000000000000000 g
b00000000000000000000000000000000 f
b00 {
b00000000000000000000000000000000 i
b00000000000000000000000000000000 h
b00000000000000000000000000000000 "g
b00000000000000000000000000000000 c
b0000 ",
b00000000000000000000000000000000 e
b00000000000000000000000000000000 d
b00000000000000000000000000000000 _
b00000000000000000000000000000000 ^
b00000000000000000000000000000000 "i
b00000000000000000000000000000000 a
b00000000000000000000000000000000 `
b0000 "5
b00000000000000000000000000000000 }
b00000000000000000000000000000000 w
b00000000000000000000000000000000 x
b00000000000000000000000000000000 s
b00000000000000000000000000000000 p
b0000 b
b00000 u
b00000 v
b00 \
b00000000000000000000000000000 "T
b00000 "a
b00000000000000000000000000000000 E
b00000000000000000000000000000000 D
b00000 "b
b00000000000000000000000000000000 [
b00000000000000000000000000000000 Z
b00000000000000000000000000000000 ]
b00000000000000000000000000000000 W
b00000 "]
0%
b00000000000000000000000000000000 V
0&
b00000000000000000000000000000000 Y
b00000 "_
b0000 o
b00000000000000000000000000000 "e
b00000000000000000000000000000000 X
b00000 "^
b00000000000000000000000000000000 S
0)
b00000 "P
b00 ?
b00000000000000000000000000000000 U
b00000000000000000000000000000000 T
b00000000000000000000000000000000 O
b000 "K
0-
0.
b0000 "c
b00000000000000000000000000000000 Q
b00000000000000000000000000000000 P
$end
#0
1"d
1"E
b11111110000000000000000000000 "e
b00000000000000000000000000000100 E
b11111110000000000000000000000 H
b11111110000000000000000000000 I
1"+
b11111110000000000000000000000 K
b1111111111111111111111111111111111111111111111111111111111111111 k
1L
b11111110000000000000000000000 M
1"/
b11111110000000000000000000000 N
11
b00100110000000000000000000000 "T
14
b1111111 "Y
18
1"[
1:
b00100110000000000000000000000 z
b01 \
b00100110000000000000000000000 |
#1
1C
b11111111111111111000000000000 "e
b11111111110000000000000000000 H
b11111111111111111111111111111111 "*
b111 "K
1"k
b1111111 "L
b11111111110000000000000000000 K
b11111 "O
1.
b11111111110000000000000000000 N
b11111 "P
10
1"2
b11111111111111111111111111111111 S
b11111111111111111111111111111111 s
b11111111111111111111111111111111 "Z
b11111 "_
#6
00
0"2
01
0C
0"E
0"[
0"k
0:
0"/
0.
#11
10
1"2
1C
1"k
1.
#16
00
0"2
0C
1"f
1G
0"k
b11111111111111111111111111111111 ,
1l
1".
0.
1n
#21
10
1"2
1C
1"k
1.
#26
00
0"2
0C
04
1"6
1"W
0"k
b00000011111100000000001010010011 ;
b00000011111100000000001010010011 ,
b00 \
0.
#31
b00101 A
1C
b00100110000000001000000000000 "e
1F
b00100110000000000000000000000 H
b00000011111100000000001010010011 "*
b00100110000000000000000000000 I
1"k
b00101 J
b00100110000000000000000000000 K
b00100110000000000000000000000 M
b00100110000000000000000000000 N
1"2
1"3
b00000000000000000000000000000100 "4
b00000011111100000000001010010011 S
b00000000000000000000000000111111 _
b00000000000000000000000000111111 "
b00000000000000000000000000111111 '
1"I
b00000000000000000000000000111111 (
b00101 "J
b000 "K
b0000001 "L
b0000000000000000000000000000000000000000000000000000000000000001 +
b0000000000000000000000000000000000000000000000000000000000000000 k
b00000 "O
1.
10
b00000000000000000000000000111111 2
b00000011111100000000001010010011 s
14
b00000000000000000000000000111111 5
b00101 6
b00000000000000000000000000000100 7
b00000000000000000000000000111111 w
b0010011 "Y
b00000000000000000000000000000100 x
b00000011111100000000001010010011 "Z
b00101 "_
1>
b00000000000000000000000000111111 ~
b00000000000000000000000000111111 "`
#36
00
0"2
0C
1"6
0"k
b00001011011000000000010100010011 ;
b00001011011000000000010100010011 ,
0.
#41
b01010 A
1C
b00000000000000000000000000000100 "%
b00100110001111111000000000000 "e
b00000000000000000000000000001000 E
b00001011011000000000010100010011 "*
1"k
b01010 J
b00000000000000000000000000000100 "l
1"2
b00000000000000000000000000001000 "4
b00001011011000000000010100010011 S
b00000000000000000000000000111111 "=
b00000000000000000000000010110110 _
b00000000000000000000000010110110 "
b00000000000000000000000010110110 '
b00000000000000000000000010110110 (
b01010 "J
b1111111 "L
b0000000000000000000000000000000000000000000000000000000000000010 +
b0000000000000000000000000000000000000000000000000000000000000001 k
b00000000000000000000000000000100 m
1.
b10110 "P
10
b00000000000000000000000000000100 "R
b00000000000000000000000010110110 2
b00001011011000000000010100010011 s
b00000000000000000000000010110110 5
b01010 6
b00000000000000000000000000001000 7
b00000000000000000000000010110110 w
b00000000000000000000000000001000 x
b00001011011000000000010100010011 "Z
b01010 "_
b00000000000000000000000010110110 ~
b00000000000000000000000010110110 "`
#46
00
0"2
0C
1"6
0"k
b00001101011100000000011100010011 ;
b00001101011100000000011100010011 ,
0.
#51
b01110 A
1C
b00000000000000000000000000001000 "%
b00000000000000000000000000001100 E
b00001101011100000000011100010011 "*
1"k
b01110 J
b00000000000000000000000000001000 "l
1"2
b00000000000000000000000000001100 "4
b00001101011100000000011100010011 S
b00000000000000000000000011010111 _
b00000000000000000000000011010111 "
b00000000000000000000000011010111 '
b00000000000000000000000011010111 (
b01110 "J
b00000000000000000000000010110110 i
b0000000000000000000000000000000000000000000000000000000000000011 +
b0000000000000000000000000000000000000000000000000000000000000010 k
b00000000000000000000000000001000 m
1.
b10111 "P
10
b00000000000000000000000000001000 "R
b00000000000000000000000011010111 2
b00001101011100000000011100010011 s
b00000000000000000000000011010111 5
b01110 6
b00000000000000000000000000001100 7
b00000000000000000000000011010111 w
b00000000000000000000000000001100 x
b00001101011100000000011100010011 "Z
b01110 "_
b00000000000000000000000011010111 ~
b00000000000000000000000011010111 "`
#56
00
0"2
0C
1"6
0"k
b00000001111100000000000010010011 ;
b00000001111100000000000010010011 ,
0.
#61
b00001 A
1C
b00000000000000000000000000001100 "%
b00100110000000000000000000000 "e
b00000000000000000000000000010000 E
b00000001111100000000000010010011 "*
1"k
b00001 J
b00000000000000000000000000001100 "l
1"2
b00000000000000000000000000010000 "4
b00000001111100000000000010010011 S
b00000000000000000000000000011111 _
b00000000000000000000000000011111 "
b00000000000000000000000011010111 e
b00000000000000000000000000011111 '
b00000000000000000000000000011111 (
b00001 "J
b0000000 "L
b0000000000000000000000000000000000000000000000000000000000000100 +
b0000000000000000000000000000000000000000000000000000000000000011 k
b00000000000000000000000000001100 m
1.
b11111 "P
10
b00000000000000000000000000001100 "R
b00000000000000000000000000011111 2
b00000001111100000000000010010011 s
b00000000000000000000000000011111 5
b00001 6
b00000000000000000000000000010000 7
b00000000000000000000000000011111 w
b00000000000000000000000000010000 x
b00000001111100000000000010010011 "Z
b00001 "_
b00000000000000000000000000011111 ~
b00000000000000000000000000011111 "`
#66
00
0"2
0C
1"6
0"k
b00000110100100000000001100010011 ;
b00000110100100000000001100010011 ,
0.
#71
b00110 A
1C
b00000000000000000000000000010000 "%
b00100110001111111000000000000 "e
b00000000000000000000000000010100 E
b00000110100100000000001100010011 "*
1"k
b00110 J
b00000000000000000000000000010000 "l
1"2
b00000000000000000000000000010100 "4
b00000110100100000000001100010011 S
b00000000000000000000000001101001 _
b00000000000000000000000000011111 "B
b00000000000000000000000001101001 "
b00000000000000000000000001101001 '
b00000000000000000000000001101001 (
b00110 "J
b1111111 "L
b0000000000000000000000000000000000000000000000000000000000000101 +
b0000000000000000000000000000000000000000000000000000000000000100 k
b00000000000000000000000000010000 m
1.
b01001 "P
10
b00000000000000000000000000010000 "R
b00000000000000000000000001101001 2
b00000110100100000000001100010011 s
b00000000000000000000000001101001 5
b00110 6
b00000000000000000000000000010100 7
b00000000000000000000000001101001 w
b00000000000000000000000000010100 x
b00000110100100000000001100010011 "Z
b00110 "_
b00000000000000000000000001101001 ~
b00000000000000000000000001101001 "`
#76
00
0"2
0C
1"6
0"k
b00000010010000000000010010010011 ;
b00000010010000000000010010010011 ,
0.
#81
b01001 A
1C
b00000000000000000000000000010100 "%
b00100110000000001000000000000 "e
b00000000000000000000000000011000 E
b00000010010000000000010010010011 "*
1"k
b01001 J
b00000000000000000000000000010100 "l
1"2
b00000000000000000000000000011000 "4
b00000010010000000000010010010011 S
b00000000000000000000000001101001 ">
b00000000000000000000000000100100 _
b00000000000000000000000000100100 "
b00000000000000000000000000100100 '
b00000000000000000000000000100100 (
b01001 "J
b0000001 "L
b0000000000000000000000000000000000000000000000000000000000000110 +
b0000000000000000000000000000000000000000000000000000000000000101 k
b00000000000000000000000000010100 m
1.
b00100 "P
10
b00000000000000000000000000010100 "R
b00000000000000000000000000100100 2
b00000010010000000000010010010011 s
b00000000000000000000000000100100 5
b01001 6
b00000000000000000000000000011000 7
b00000000000000000000000000100100 w
b00000000000000000000000000011000 x
b00000010010000000000010010010011 "Z
b01001 "_
b00000000000000000000000000100100 ~
b00000000000000000000000000100100 "`
#86
00
0"2
0C
1"6
0"k
b00001111111100000000011010010011 ;
b00001111111100000000011010010011 ,
0.
#91
b01101 A
1C
b00000000000000000000000000011000 "%
b00100110001111111000000000000 "e
b00000000000000000000000000011100 E
b00001111111100000000011010010011 "*
1"k
b01101 J
b00000000000000000000000000011000 "l
1"2
b00000000000000000000000000011100 "4
b00001111111100000000011010010011 S
b00000000000000000000000000100100 ":
b00000000000000000000000011111111 _
b00000000000000000000000011111111 "
b00000000000000000000000011111111 '
b00000000000000000000000011111111 (
b01101 "J
b1111111 "L
b0000000000000000000000000000000000000000000000000000000000000111 +
b0000000000000000000000000000000000000000000000000000000000000110 k
b00000000000000000000000000011000 m
1.
b11111 "P
10
b00000000000000000000000000011000 "R
b00000000000000000000000011111111 2
b00001111111100000000011010010011 s
b00000000000000000000000011111111 5
b01101 6
b00000000000000000000000000011100 7
b00000000000000000000000011111111 w
b00000000000000000000000000011100 x
b00001111111100000000011010010011 "Z
b01101 "_
b00000000000000000000000011111111 ~
b00000000000000000000000011111111 "`
#96
00
0"2
0C
1"6
0"k
b00001000111100000000000100010011 ;
b00001000111100000000000100010011 ,
0.
#101
b00010 A
1C
b00000000000000000000000000011100 "%
b00000000000000000000000000100000 E
b00001000111100000000000100010011 "*
1"k
b00010 J
b00000000000000000000000000011100 "l
1"2
b00000000000000000000000000100000 "4
b00001000111100000000000100010011 S
b00000000000000000000000010001111 _
b00000000000000000000000010001111 "
b00000000000000000000000010001111 '
b00000000000000000000000010001111 (
b00000000000000000000000011111111 h
b00010 "J
b0000000000000000000000000000000000000000000000000000000000001000 +
b0000000000000000000000000000000000000000000000000000000000000111 k
b00000000000000000000000000011100 m
1.
b01111 "P
10
b00000000000000000000000000011100 "R
b00000000000000000000000010001111 2
b00001000111100000000000100010011 s
b00000000000000000000000010001111 5
b00010 6
b00000000000000000000000000100000 7
b00000000000000000000000010001111 w
b00000000000000000000000000100000 x
b00001000111100000000000100010011 "Z
b00010 "_
b00000000000000000000000010001111 ~
b00000000000000000000000010001111 "`
#106
00
0"2
0C
1"6
0"k
b00000101110100000000100010010011 ;
b00000101110100000000100010010011 ,
0.
#111
b10001 A
1C
b00000000000000000000000000100000 "%
b00000000000000000000000000100100 E
b00000101110100000000100010010011 "*
1"k
b10001 J
b00000000000000000000000000100000 "l
1"2
b00000000000000000000000000100100 "4
b00000101110100000000100010010011 S
b00000000000000000000000001011101 _
b00000000000000000000000010001111 "C
b00000000000000000000000001011101 "
b00000000000000000000000001011101 '
b00000000000000000000000001011101 (
b10001 "J
b0000000000000000000000000000000000000000000000000000000000001001 +
b0000000000000000000000000000000000000000000000000000000000001000 k
b00000000000000000000000000100000 m
1.
b11101 "P
10
b00000000000000000000000000100000 "R
b00000000000000000000000001011101 2
b00000101110100000000100010010011 s
b00000000000000000000000001011101 5
b10001 6
b00000000000000000000000000100100 7
b00000000000000000000000001011101 w
b00000000000000000000000000100100 x
b00000101110100000000100010010011 "Z
b10001 "_
b00000000000000000000000001011101 ~
b00000000000000000000000001011101 "`
#116
00
0"2
0C
1"6
0"k
b00001001100100000000011000010011 ;
b00001001100100000000011000010011 ,
0.
#121
b01100 A
1C
b00000000000000000000000000100100 "%
b00000000000000000000000000101000 E
b00001001100100000000011000010011 "*
1"k
b01100 J
b00000000000000000000000000100100 "l
1"2
b00000000000000000000000000101000 "4
b00001001100100000000011000010011 S
b00000000000000000000000010011001 _
b00000000000000000000000010011001 "
b00000000000000000000000001011101 d
b00000000000000000000000010011001 '
b00000000000000000000000010011001 (
b01100 "J
b0000000000000000000000000000000000000000000000000000000000001010 +
b0000000000000000000000000000000000000000000000000000000000001001 k
b00000000000000000000000000100100 m
1.
b11001 "P
10
b00000000000000000000000000100100 "R
b00000000000000000000000010011001 2
b00001001100100000000011000010011 s
b00000000000000000000000010011001 5
b01100 6
b00000000000000000000000000101000 7
b00000000000000000000000010011001 w
b00000000000000000000000000101000 x
b00001001100100000000011000010011 "Z
b01100 "_
b00000000000000000000000010011001 ~
b00000000000000000000000010011001 "`
#126
00
0"2
0C
1"6
0"k
b00001001101000000000001110010011 ;
b00001001101000000000001110010011 ,
0.
#131
b00111 A
1C
b00000000000000000000000000101000 "%
b00000000000000000000000000101100 E
b00001001101000000000001110010011 "*
1"k
b00111 J
b00000000000000000000000000101000 "l
1"2
b00000000000000000000000000101100 "4
b00001001101000000000001110010011 S
b00000000000000000000000010011010 _
b00000000000000000000000010011010 "
b00000000000000000000000010011010 '
b00000000000000000000000010011001 g
b00000000000000000000000010011010 (
b00111 "J
b0000000000000000000000000000000000000000000000000000000000001011 +
b0000000000000000000000000000000000000000000000000000000000001010 k
b00000000000000000000000000101000 m
1.
b11010 "P
10
b00000000000000000000000000101000 "R
b00000000000000000000000010011010 2
b00001001101000000000001110010011 s
b00000000000000000000000010011010 5
b00111 6
b00000000000000000000000000101100 7
b00000000000000000000000010011010 w
b00000000000000000000000000101100 x
b00001001101000000000001110010011 "Z
b00111 "_
b00000000000000000000000010011010 ~
b00000000000000000000000010011010 "`
#136
00
0"2
0C
1"6
0"k
b00000110001000000000000110010011 ;
b00000110001000000000000110010011 ,
0.
#141
b00011 A
1C
b00000000000000000000000000101100 "%
b00000000000000000000000000110000 E
b00000110001000000000000110010011 "*
1"k
b00011 J
b00000000000000000000000000101100 "l
1"2
b00000000000000000000000000110000 "4
b00000110001000000000000110010011 S
b00000000000000000000000010011010 ";
b00000000000000000000000001100010 _
b00000000000000000000000001100010 "
b00000000000000000000000001100010 '
b00000000000000000000000001100010 (
b00011 "J
b0000000000000000000000000000000000000000000000000000000000001100 +
b0000000000000000000000000000000000000000000000000000000000001011 k
b00000000000000000000000000101100 m
1.
b00010 "P
10
b00000000000000000000000000101100 "R
b00000000000000000000000001100010 2
b00000110001000000000000110010011 s
b00000000000000000000000001100010 5
b00011 6
b00000000000000000000000000110000 7
b00000000000000000000000001100010 w
b00000000000000000000000000110000 x
b00000110001000000000000110010011 "Z
b00011 "_
b00000000000000000000000001100010 ~
b00000000000000000000000001100010 "`
#146
00
0"2
0C
1"6
0"k
b00000010100100000000100100010011 ;
b00000010100100000000100100010011 ,
0.
#151
b10010 A
1C
b00000000000000000000000000110000 "%
b00100110000000001000000000000 "e
b00000000000000000000000000110100 E
b00000010100100000000100100010011 "*
1"k
b10010 J
b00000000000000000000000000110000 "l
1"2
b00000000000000000000000000110100 "4
b00000010100100000000100100010011 S
b00000000000000000000000001100010 "@
b00000000000000000000000000101001 _
b00000000000000000000000000101001 "
b00000000000000000000000000101001 '
b00000000000000000000000000101001 (
b10010 "J
b0000001 "L
b0000000000000000000000000000000000000000000000000000000000001101 +
b0000000000000000000000000000000000000000000000000000000000001100 k
b00000000000000000000000000110000 m
1.
b01001 "P
10
b00000000000000000000000000110000 "R
b00000000000000000000000000101001 2
b00000010100100000000100100010011 s
b00000000000000000000000000101001 5
b10010 6
b00000000000000000000000000110100 7
b00000000000000000000000000101001 w
b00000000000000000000000000110100 x
b00000010100100000000100100010011 "Z
b10010 "_
b00000000000000000000000000101001 ~
b00000000000000000000000000101001 "`
#156
00
0"2
0C
1"6
0"k
b00001011001100000000010110010011 ;
b00001011001100000000010110010011 ,
0.
#161
b01011 A
1C
b00000000000000000000000000110100 "%
b00100110001111111000000000000 "e
b00000000000000000000000000111000 E
b00001011001100000000010110010011 "*
1"k
b01011 J
b00000000000000000000000000110100 "l
1"2
b00000000000000000000000000111000 "4
b00001011001100000000010110010011 S
b00000000000000000000000010110011 _
b00000000000000000000000000101001 `
b00000000000000000000000010110011 "
b00000000000000000000000010110011 '
b00000000000000000000000010110011 (
b01011 "J
b1111111 "L
b0000000000000000000000000000000000000000000000000000000000001110 +
b0000000000000000000000000000000000000000000000000000000000001101 k
b00000000000000000000000000110100 m
1.
b10011 "P
10
b00000000000000000000000000110100 "R
b00000000000000000000000010110011 2
b00001011001100000000010110010011 s
b00000000000000000000000010110011 5
b01011 6
b00000000000000000000000000111000 7
b00000000000000000000000010110011 w
b00000000000000000000000000111000 x
b00001011001100000000010110010011 "Z
b01011 "_
b00000000000000000000000010110011 ~
b00000000000000000000000010110011 "`
#166
00
0"2
0C
1"6
0"k
b00000110111000000000010000010011 ;
b00000110111000000000010000010011 ,
0.
#171
b01000 A
1C
b00000000000000000000000000111000 "%
b00000000000000000000000000111100 E
b00000110111000000000010000010011 "*
1"k
b01000 J
b00000000000000000000000000111000 "l
1"2
b00000000000000000000000000111100 "4
b00000110111000000000010000010011 S
b00000000000000000000000001101110 _
b00000000000000000000000001101110 "
b00000000000000000000000001101110 '
b00000000000000000000000001101110 (
b01000 "J
b00000000000000000000000010110011 j
b0000000000000000000000000000000000000000000000000000000000001111 +
b0000000000000000000000000000000000000000000000000000000000001110 k
b00000000000000000000000000111000 m
1.
b01110 "P
10
b00000000000000000000000000111000 "R
b00000000000000000000000001101110 2
b00000110111000000000010000010011 s
b00000000000000000000000001101110 5
b01000 6
b00000000000000000000000000111100 7
b00000000000000000000000001101110 w
b00000000000000000000000000111100 x
b00000110111000000000010000010011 "Z
b01000 "_
b00000000000000000000000001101110 ~
b00000000000000000000000001101110 "`
#176
00
0"2
0C
1"6
0"k
b00000111111100000000001000010011 ;
b00000111111100000000001000010011 ,
0.
#181
b00100 A
1C
b00000000000000000000000000111100 "%
b00000000000000000000000001000000 E
b00000111111100000000001000010011 "*
1"k
b00100 J
b00000000000000000000000000111100 "l
1"2
b00000000000000000000000001000000 "4
b00000111111100000000001000010011 S
b00000000000000000000000001101110 "<
b00000000000000000000000001111111 _
b00000000000000000000000001111111 "
b00000000000000000000000001111111 '
b00000000000000000000000001111111 (
b00100 "J
b0000000000000000000000000000000000000000000000000000000000010000 +
b0000000000000000000000000000000000000000000000000000000000001111 k
b00000000000000000000000000111100 m
1.
b11111 "P
10
b00000000000000000000000000111100 "R
b00000000000000000000000001111111 2
b00000111111100000000001000010011 s
b00000000000000000000000001111111 5
b00100 6
b00000000000000000000000001000000 7
b00000000000000000000000001111111 w
b00000000000000000000000001000000 x
b00000111111100000000001000010011 "Z
b00100 "_
b00000000000000000000000001111111 ~
b00000000000000000000000001111111 "`
#186
00
0"2
0C
1"6
0"k
b00001101110000000000011110010011 ;
b00001101110000000000011110010011 ,
0.
#191
b01111 A
1C
b00000000000000000000000001000000 "%
b00000000000000000000000001000100 E
b00001101110000000000011110010011 "*
1"k
b01111 J
b00000000000000000000000001000000 "l
1"2
b00000000000000000000000001000100 "4
b00001101110000000000011110010011 S
b00000000000000000000000011011100 _
b00000000000000000000000001111111 "A
b00000000000000000000000011011100 "
b00000000000000000000000011011100 '
b00000000000000000000000011011100 (
b01111 "J
b0000000000000000000000000000000000000000000000000000000000010001 +
b0000000000000000000000000000000000000000000000000000000000010000 k
b00000000000000000000000001000000 m
1.
b11100 "P
10
b00000000000000000000000001000000 "R
b00000000000000000000000011011100 2
b00001101110000000000011110010011 s
b00000000000000000000000011011100 5
b01111 6
b00000000000000000000000001000100 7
b00000000000000000000000011011100 w
b00000000000000000000000001000100 x
b00001101110000000000011110010011 "Z
b01111 "_
b00000000000000000000000011011100 ~
b00000000000000000000000011011100 "`
