test_run_dir/should_store_public/Core.vcd
$date
2024-06-20T11:15+0000
$end
$version
0.2
$end
$comment

$end
$timescale 1ns  $end
$scope module Core $end
 $var wire 32 # io_rvfi_rvfi_mem_rdata $end
 $var wire 1 ' register_file $end
 $var wire 1 + data_gnt $end
 $var wire 5 , io_rvfi_rvfi_rs2_addr $end
 $var wire 64 - order $end
 $var wire 32 / next_instruction $end
 $var wire 1 0 io_data_data_req $end
 $var wire 32 6 io_data_data_addr $end
 $var wire 32 7 io_rvfi_rvfi_rs1_rdata $end
 $var wire 1 8 io_instr_instr_req $end
 $var wire 32 = io_instr_instr_addr $end
 $var wire 32 B io_instr_instr_rdata $end
 $var wire 4 C mem_wmask $end
 $var wire 2 D io_rvfi_rvfi_mode $end
 $var wire 5 I io_rvfi_rvfi_rd_addr $end
 $var wire 4 J io_rvfi_rvfi_mem_wmask $end
 $var wire 32 [ mem_addr $end
 $var wire 1 ^ had_mem_req $end
 $var wire 2 h stall $end
 $var wire 4 n io_data_data_be $end
 $var wire 64 w io_rvfi_rvfi_order $end
 $var wire 1 "" executionUnits_1 $end
 $var wire 1 "# executionUnits_0 $end
 $var wire 1 "$ executionUnits_2 $end
 $var wire 1 "' io_rvfi_rvfi_intr $end
 $var wire 32 ") io_rvfi_rvfi_insn $end
 $var wire 1 "* io_data_data_gnt $end
 $var wire 32 "/ io_rvfi_rvfi_pc_wdata $end
 $var wire 32 "4 mem_rdata $end
 $var wire 5 "7 io_rvfi_rvfi_rs1_addr $end
 $var wire 32 "< io_rvfi_rvfi_pc_rdata $end
 $var wire 4 "D mem_rmask $end
 $var wire 1 "E io_data_data_we $end
 $var wire 1 "F io_reset_rst_n $end
 $var wire 1 "I io_rvfi_rvfi_trap $end
 $var wire 1 "J clock $end
 $var wire 1 "N io_instr_instr_gnt $end
 $var wire 32 "P mem_wdata $end
 $var wire 32 "Q io_reset_boot_addr $end
 $var wire 32 "W io_data_data_wdata $end
 $var wire 1 "] reset $end
 $var wire 2 "^ io_rvfi_rvfi_ixl $end
 $var wire 1 "j io_rvfi_rvfi_halt $end
 $var wire 32 "m io_rvfi_rvfi_rs2_rdata $end
 $var wire 32 "o io_data_data_rdata $end
 $var wire 1 "w io_rvfi_rvfi_valid $end
 $var wire 32 "z instruction $end
 $var wire 1 "| pc $end
 $var wire 32 ## io_rvfi_rvfi_rd_wdata $end
 $var wire 32 #* io_rvfi_rvfi_mem_wdata $end
 $var wire 4 #+ io_rvfi_rvfi_mem_rmask $end
 $var wire 32 #, io_rvfi_rvfi_mem_addr $end
  $scope module executionUnits_0.alu $end
  $upscope $end
  $scope module pc $end
   $var wire 1 x io_reset_rst_n $end
   $var wire 32 y pc $end
   $var wire 32 "! io_reset_boot_addr $end
   $var wire 1 "G reset $end
   $var wire 1 "K io_pc_we $end
   $var wire 32 "L io_pc_wdata $end
   $var wire 1 #. clock $end
   $var wire 32 #/ io_pc $end
  $upscope $end
  $scope module executionUnits_0.branch_unit $end
  $upscope $end
  $scope module register_file $end
   $var wire 1 2 clock $end
   $var wire 32 : io_reg_write_data $end
   $var wire 5 < io_reg_rd $end
   $var wire 1 A reset $end
   $var wire 1 E io_reg_write_en $end
   $var wire 1 P io_reset_rst_n $end
   $var wire 32 \ registers_30 $end
   $var wire 32 ] registers_31 $end
   $var wire 32 ` registers_29 $end
   $var wire 32 a registers_27 $end
   $var wire 32 b registers_28 $end
   $var wire 32 c registers_25 $end
   $var wire 32 d registers_26 $end
   $var wire 32 e registers_23 $end
   $var wire 32 f registers_24 $end
   $var wire 32 g registers_21 $end
   $var wire 32 i registers_22 $end
   $var wire 32 j registers_20 $end
   $var wire 32 l registers_18 $end
   $var wire 32 m registers_19 $end
   $var wire 32 o registers_16 $end
   $var wire 32 p registers_17 $end
   $var wire 32 q registers_14 $end
   $var wire 32 r registers_15 $end
   $var wire 32 s registers_12 $end
   $var wire 32 t registers_13 $end
   $var wire 32 u registers_10 $end
   $var wire 32 v registers_11 $end
   $var wire 32 "@ io_reg_read_data1 $end
   $var wire 32 "A io_reg_read_data2 $end
   $var wire 32 "R registers_9 $end
   $var wire 32 "S registers_7 $end
   $var wire 32 "T registers_8 $end
   $var wire 32 "U registers_5 $end
   $var wire 32 "V registers_6 $end
   $var wire 32 "X registers_3 $end
   $var wire 32 "Y registers_4 $end
   $var wire 32 "Z registers_1 $end
   $var wire 32 "[ registers_2 $end
   $var wire 32 "\ registers_0 $end
   $var wire 5 "} io_reg_rs1 $end
   $var wire 5 "~ io_reg_rs2 $end
  $upscope $end
  $scope module executionUnits_0.control_unit $end
  $upscope $end
  $scope module executionUnits_0.decoder $end
  $upscope $end
  $scope module executionUnits_1 $end
   $var wire 1 % io_data_data_we $end
   $var wire 1 * io_reg_reg_write_en $end
   $var wire 32 1 io_data_data_addr $end
   $var wire 4 9 io_data_data_be $end
   $var wire 32 G io_reg_reg_write_data $end
   $var wire 1 N io_valid $end
   $var wire 5 "% io_reg_reg_rs2 $end
   $var wire 5 "& io_reg_reg_rs1 $end
   $var wire 5 ". io_reg_reg_rd $end
   $var wire 1 "5 io_pc_pc_we $end
   $var wire 2 "9 io_stall $end
   $var wire 32 "_ io_data_data_wdata $end
   $var wire 32 "g io_pc_pc_wdata $end
   $var wire 1 "v io_data_data_req $end
  $upscope $end
  $scope module executionUnits_0 $end
   $var wire 4 3 io_data_data_be $end
   $var wire 1 > io_pc_pc_we $end
   $var wire 1 @ io_data_data_req $end
   $var wire 1 H decoder $end
   $var wire 1 K clock $end
   $var wire 32 L io_data_data_wdata $end
   $var wire 32 M io_pc_pc_wdata $end
   $var wire 32 _ io_instr $end
   $var wire 5 "+ io_reg_reg_rs2 $end
   $var wire 5 ", io_reg_reg_rs1 $end
   $var wire 32 "- io_data_data_addr $end
   $var wire 1 "0 io_data_data_we $end
   $var wire 2 "2 io_stall $end
   $var wire 32 "6 io_reg_reg_write_data $end
   $var wire 32 "8 io_reset_boot_addr $end
   $var wire 1 ": branch_unit $end
   $var wire 32 "; io_reg_reg_read_data2 $end
   $var wire 32 "= io_reg_reg_read_data1 $end
   $var wire 1 "C io_reg_reg_write_en $end
   $var wire 1 "H control_unit $end
   $var wire 1 "b io_valid $end
   $var wire 5 "c io_reg_reg_rd $end
   $var wire 1 "f alu $end
   $var wire 32 "n io_pc_pc $end
   $var wire 1 "t io_data_data_gnt $end
   $var wire 1 "{ reset $end
   $var wire 1 #) io_reset_rst_n $end
    $scope module alu $end
     $var wire 32 ! io_alu_op1 $end
     $var wire 32 " io_alu_op2 $end
     $var wire 32 k io_alu_result $end
     $var wire 4 "M io_alu_alu_op $end
    $upscope $end
    $scope module control_unit $end
     $var wire 3 $ io_ctrl_next_pc_select $end
     $var wire 1 & io_ctrl_data_req $end
     $var wire 1 4 clock $end
     $var wire 1 5 reset $end
     $var wire 2 F io_ctrl_stall $end
     $var wire 1 X io_ctrl_alu_op_2_sel $end
     $var wire 1 z io_reset_rst_n $end
     $var wire 4 { io_ctrl_data_be $end
     $var wire 29 "1 io_ctrl_instr_type $end
     $var wire 1 "? io_ctrl_data_we $end
     $var wire 2 "O stalled $end
     $var wire 1 "` io_ctrl_data_gnt $end
     $var wire 2 "a was_stalled $end
     $var wire 3 "s io_ctrl_reg_write_sel $end
     $var wire 1 "x io_ctrl_alu_op_1_sel $end
     $var wire 4 #& io_ctrl_alu_control $end
     $var wire 1 #' io_ctrl_reg_we $end
    $upscope $end
    $scope module branch_unit $end
     $var wire 32 ( io_branch_alu_out $end
     $var wire 29 "p io_branch_instr_type $end
     $var wire 1 #- io_branch_branch_taken $end
    $upscope $end
    $scope module decoder $end
     $var wire 32 ) io_decoder_imm $end
     $var wire 1 O io_decoder_valid $end
     $var wire 29 Q io_decoder_instr_type_j_4 $end
     $var wire 29 R io_decoder_instr_type_j_3 $end
     $var wire 5 S io_decoder_rd $end
     $var wire 29 T io_decoder_instr_type_j_6 $end
     $var wire 29 U io_decoder_instr_type_j_5 $end
     $var wire 29 V io_decoder_instr_type_j_8 $end
     $var wire 29 W io_decoder_instr_type_j_7 $end
     $var wire 29 Y io_decoder_instr_type_j_2 $end
     $var wire 29 Z io_decoder_instr_type_j_1 $end
     $var wire 29 "3 io_decoder_instr_type $end
     $var wire 32 "B io_decoder_instr $end
     $var wire 3 "d funct3 $end
     $var wire 7 "e funct7 $end
     $var wire 5 "k RS1 $end
     $var wire 5 "l RS2 $end
     $var wire 7 "y opcode $end
     $var wire 5 #" RD $end
     $var wire 5 #$ io_decoder_rs1 $end
     $var wire 5 #% io_decoder_rs2 $end
     $var wire 29 #( io_decoder_instr_type_j $end
    $upscope $end
  $upscope $end
  $scope module executionUnits_2 $end
   $var wire 1 . io_valid $end
   $var wire 1 ; io_data_data_we $end
   $var wire 1 ? io_pc_pc_we $end
   $var wire 32 | io_data_data_addr $end
   $var wire 5 } io_reg_reg_rs1 $end
   $var wire 5 ~ io_reg_reg_rs2 $end
   $var wire 1 "( io_reg_reg_write_en $end
   $var wire 1 "> io_data_data_req $end
   $var wire 5 "h io_reg_reg_rd $end
   $var wire 32 "i io_pc_pc_wdata $end
   $var wire 4 "q io_data_data_be $end
   $var wire 32 "r io_reg_reg_write_data $end
   $var wire 2 "u io_stall $end
   $var wire 32 #! io_data_data_wdata $end
  $upscope $end
$upscope $end
$enddefinitions $end
$dumpvars
00
02
04
05
b00000000000000000000000000000000 )
b00000000000000000000000000000000 (
08
b00000000000000000000000000000000 #
b00000000000000000000000000000000 "
0;
b0000 "q
0>
b00000000000000000000000000000000 !
0?
0@
0A
b00000000000000000000000000000000 :
b00000000000000000000000000000000 =
b00000000000000000000000000000000 7
0E
b00000000000000000000000000000000 6
0H
0K
b00000000000000000000000000000000 /
0N
b00000000000000000000000000000000 1
0O
0P
0X
0^
b00000000000000000000000000000 Z
b0000 3
b00000000000000000000000000000 R
b00000000000000000000000000000 T
b00000000000000000000000000000 U
b00000000000000000000000000000 V
b0000 9
b00000000000000000000000000000 W
b00000000000000000000000000000 Y
b0000000000000000000000000000000000000000000000000000000000000000 w
b0000000 "y
b00000000000000000000000000000 Q
0x
0z
b00 "u
0""
0"#
0"$
0"'
0"(
0"*
b0000000 "e
0"0
0"5
b00 "a
0":
b00000 #"
b00000 #$
0">
0"?
b00000 #%
b00 "^
0"C
0"E
0"F
0#'
0"G
0"H
0#)
0"I
0"J
0"K
0#-
0#.
0"N
b00 "O
b00000 "7
b00 "9
b00000 "+
b00000 ",
b00000 ".
0"]
b00000 "%
0"`
b00000 "&
0"b
0"f
0"j
b00 "2
b00000000000000000000000000000000 "o
b00000000000000000000000000000000 "n
b00000000000000000000000000000000 "m
0"t
0"v
b00000000000000000000000000000000 "r
0"w
0"x
b00000000000000000000000000000000 "g
0"{
0"|
b00000000000000000000000000000000 "i
b00 h
b00000 "}
b00000 "~
b00000000000000000000000000000000 "z
b00000 "h
b00000 "k
b00000 "l
b000 $
b00000 "c
b00 F
b00 D
b00000000000000000000000000000000 "/
b00000000000000000000000000000000 "-
b00000000000000000000000000000000 ")
b00000000000000000000000000000000 "=
b00000000000000000000000000000000 "<
b00000000000000000000000000000000 "B
b00000000000000000000000000000000 ##
b00000000000000000000000000000000 "A
b00000000000000000000000000000000 "@
b00000000000000000000000000000000 #!
b00000000000000000000000000000000 "6
b00000000000000000000000000000000 "4
b00000000000000000000000000000000 ";
b00000000000000000000000000000000 "8
b00000000000000000000000000000000 #/
b00000000000000000000000000000000 "L
b00000000000000000000000000000000 "S
b00000000000000000000000000000000 "R
b00000000000000000000000000000000 "Q
b00000000000000000000000000000000 "P
b00000000000000000000000000000000 #,
b00000000000000000000000000000000 #*
b00000000000000000000000000000000 "_
b00000000000000000000000000000000 "\
b00000000000000000000000000000000 "W
b00000000000000000000000000000000 "V
b00000000000000000000000000000000 "U
b00000000000000000000000000000000 "T
b00000000000000000000000000000000 "[
b00000000000000000000000000000000 "Z
b00000000000000000000000000000000 "Y
b00000000000000000000000000000000 "X
b00000000000000000000000000000000 "!
b00000000000000000000000000000 "3
b00000000000000000000000000000 "1
b000 "d
b00000000000000000000000000000 #(
b0000000000000000000000000000000000000000000000000000000000000000 -
b00000 ,
b000 "s
b00000 <
b00000 I
b00000 S
b00000000000000000000000000000000 k
b00000000000000000000000000000000 j
b00000000000000000000000000000 "p
b00000000000000000000000000000000 m
b0000 C
b00000000000000000000000000000000 l
b00000000000000000000000000000000 g
b00000000000000000000000000000000 f
b00000000000000000000000000000000 i
b00000000000000000000000000000000 c
b00000000000000000000000000000000 b
b0000 J
b00000000000000000000000000000000 e
b00000000000000000000000000000000 d
b00000000000000000000000000000000 _
b00000000000000000000000000000000 a
b00000000000000000000000000000000 `
b00000000000000000000000000000000 |
b00000000000000000000000000000000 v
b00000000000000000000000000000000 y
b00000000000000000000000000000000 s
b00000000000000000000000000000000 r
b00000000000000000000000000000000 u
b00000000000000000000000000000000 t
b00000000000000000000000000000000 o
b00000000000000000000000000000000 q
b00000000000000000000000000000000 p
b0000 #&
b0000 "D
b00000000000000000000000000000000 M
b00000000000000000000000000000000 L
b00000000000000000000000000000000 G
b0000 #+
b0000 "M
b00000000000000000000000000000000 B
b00000 }
b00000 ~
b00000000000000000000000000000000 [
b00000000000000000000000000000000 ]
b00000000000000000000000000000000 \
0%
b0000 n
0&
0'
0*
b0000 {
0+
0.
$end
#0
1A
b00000000000000000000000000000100 M
b00100110000000000000000000000 "p
b00100110000000000000000000000 "1
b11111110000000000000000000000 Q
b00100110000000000000000000000 "3
b11111110000000000000000000000 R
b11111110000000000000000000000 T
b11111110000000000000000000000 U
b11111110000000000000000000000 V
b11111110000000000000000000000 W
b1111111 "y
1X
b11111110000000000000000000000 Y
1"{
b11111110000000000000000000000 Z
1"C
1#'
1"G
b11111110000000000000000000000 #(
b01 h
15
b1111111111111111111111111111111111111111111111111111111111111111 w
18
1"]
1>
#1
b11111111111111111111111111111111 "B
b111 "d
b1111111 "e
b11111111111111111000000000000 #(
b11111111111111111111111111111111 ")
1"J
b11111 "k
b11111 "l
1K
1#.
b11111111110000000000000000000 Q
12
14
b11111111110000000000000000000 U
b11111111110000000000000000000 V
b11111111110000000000000000000 W
b11111111111111111111111111111111 "z
b11111111110000000000000000000 Z
b11111111111111111111111111111111 _
b11111 #"
#6
0A
02
04
05
0"G
0"J
0"{
0K
0#.
0"]
#11
12
14
1"J
1K
1#.
#16
1P
02
04
1"F
1#)
1x
0"J
1z
0K
0#.
b11111111111111111111111111111111 /
#21
12
14
1"J
1K
1#.
#26
02
b00000000101000000000010100010011 B
04
1"w
08
b00 h
0"J
0K
0#.
1"N
b00000000101000000000010100010011 /
#31
1"b
b01010 "c
b000 "d
b0000000 "e
1E
b00000000101000000000010100010011 ")
b01010 I
b00000 "k
b01010 "l
1K
b00000000000000000000000000001010 "-
b00000000000000000000000000000100 "/
1O
b00100110000000000000000000000 Q
b00100110000000000000000000000 R
b01010 S
b00100110000000000000000000000 T
b00000000000000000000000000001010 "6
b00100110000000000000000000000 U
b00100110000000000000000000000 V
b00100110000000000000000000000 W
b0010011 "y
b00000000101000000000010100010011 "z
b00100110000000000000000000000 Y
b00100110000000000000000000000 Z
b00000000101000000000010100010011 _
b01010 #"
b00000000101000000000010100010011 "B
b00000000000000000000000000001010 ##
b00000000000000000000000000001010 "
b00100110000000000000000000000 #(
b00000000000000000000000000001010 (
1"J
b00000000000000000000000000001010 )
1"K
b00000000000000000000000000000100 "L
b00000000000000000000000000001010 k
1#.
b0000000000000000000000000000000000000000000000000000000000000001 -
12
14
b00000000000000000000000000001010 6
b0000000000000000000000000000000000000000000000000000000000000000 w
18
b00000000000000000000000000001010 :
b01010 <
b00000000000000000000000000000100 =
#36
02
b00000000101000010010000000100011 B
04
0"J
0K
0#.
1"N
b00000000101000010010000000100011 /
#41
b00000 "c
b010 "d
b00010 "k
b00000000000000000000000000001010 "m
b00000000000000000000000000000100 "n
b01000110100000000000000000000 "p
0"w
b0100011 "y
b00000000101000010010000000100011 "z
b00010 "}
b01010 "~
b00000000000000000000000000000000 "
1&
b00000000000000000000000000000000 (
b00000000000000000000000000000000 )
b01010 ,
b0000000000000000000000000000000000000000000000000000000000000010 -
10
12
b1111 3
14
b00000000000000000000000000000000 6
08
b00000000000000000000000000000000 :
b00000 <
b00000000000000000000000000001000 =
0>
1@
0E
b10 F
b00000000101000010010000000100011 ")
b00000 I
b01010 "+
b00010 ",
1K
b00000000000000000000000000000000 "-
b00000000000000000000000000001010 L
b00000000000000000000000000001000 M
b00000000000000000000000000001000 "/
1"0
b01000110100000000000000000000 "1
b10 "2
b01000110100000000000000000000 Q
b01000110100000000000000000000 "3
b01000110000000000000000000000 R
b00000 S
b01000110000000000000000000000 T
b00000000000000000000000000000000 "6
b01000110100000000000000000000 U
b00010 "7
b01000110100000000000000000000 V
b01000110100000000000000000000 W
b01000110000000000000000000000 Y
b00000000000000000000000000001010 ";
b01000110100000000000000000000 Z
b00000000000000000000000000000100 "<
1"?
b00000000101000010010000000100011 _
b00000 #"
b00000000000000000000000000001010 "A
b00000000101000010010000000100011 "B
b00000000000000000000000000000000 ##
b00010 #$
0"C
b01010 #%
1"E
0#'
b01000110100000000000000000000 #(
b10 h
1"J
0"K
b00000000000000000000000000001000 "L
b00000000000000000000000000000000 k
1#.
b00000000000000000000000000000100 #/
b10 "O
b1111 n
b00000000000000000000000000001010 u
b00000000000000000000000000001010 "W
b0000000000000000000000000000000000000000000000000000000000000001 w
b00000000000000000000000000000100 y
b1111 {
#46
02
04
1"*
0"J
0K
0#.
0"N
#51
0@
b1111 C
b00 F
b1111 J
1K
b00000000000000000000000000001010 "-
0"0
b00 "2
1"t
b00000000000000000000000000001010 "6
1"w
0X
0"?
1^
b00000000000000000000000000001010 "
0"E
0&
b00000000000000000000000000001010 #*
b00000000000000000000000000001010 (
b00 h
1"J
1"K
1+
b00000000000000000000000000001010 k
1#.
b00 "O
b0000 n
b00000000000000000000000000001010 "P
b11111111111111111111111111111111 /
00
12
b0000 3
14
b00000000000000000000000000001010 6
18
b00000000000000000000000000001010 :
b0000 {
1>
1"`
b10 "a
#56
02
b00000000010000010000000100010011 B
04
0"*
0"J
0K
0#.
1"N
b00000000010000010000000100010011 /
#61
b00010 "c
b000 "d
b00100 "l
b00000000000000000000000000000000 "m
b00000000000000000000000000001000 "n
b00100110000000000000000000000 "p
0"t
b0010011 "y
b00000000010000010000000100010011 "z
b00000 "~
b00000000000000000000000000000100 "
b00000000000000000000000000000100 (
b00000000000000000000000000000100 )
0+
b00000 ,
b0000000000000000000000000000000000000000000000000000000000000011 -
12
14
b00000000000000000000000000000100 6
b00000000000000000000000000000100 :
b00010 <
b00000000000000000000000000001100 =
1E
b00000000010000010000000100010011 ")
b00010 I
b00000 "+
b0000 J
1K
b00000000000000000000000000000100 "-
b00000000000000000000000000000000 L
b00000000000000000000000000001100 M
b00000000000000000000000000001100 "/
b00100110000000000000000000000 "1
b00100110000000000000000000000 Q
b00100110000000000000000000000 "3
b00100110000000000000000000000 R
b00010 S
b00100110000000000000000000000 T
b00000000000000000000000000000100 "6
b00100110000000000000000000000 U
b00100110000000000000000000000 V
b00100110000000000000000000000 W
1X
b00100110000000000000000000000 Y
b00000000000000000000000000000000 ";
b00100110000000000000000000000 Z
b00000000000000000000000000001000 "<
0^
b00000000010000010000000100010011 _
b00010 #"
b00000000000000000000000000000000 "A
b00000000010000010000000100010011 "B
b00000000000000000000000000000100 ##
1"C
b00000 #%
1#'
b00100110000000000000000000000 #(
b00000000000000000000000000000000 #*
1"J
b00000000000000000000000000001100 "L
b00000000000000000000000000000100 k
1#.
b00000000000000000000000000001000 #/
b00000000000000000000000000000000 "W
b0000000000000000000000000000000000000000000000000000000000000010 w
b00000000000000000000000000001000 y
0"`
b00 "a
#66
02
04
0"J
0K
0#.
0"N
b11111111111111111111111111111111 /
